la1_waveform.vcd
$date today $end
$timescale 1 ns $end
$scope module top $end
$var wire 1 0 ch0_hs $end
$var wire 1 1 ch0_de $end
$var wire 1 2 ch0_vs $end
$var wire 1 3 rx_out_vs $end
$var wire 1 4 rx_out_hs $end
$var wire 1 5 rx_out_valid $end
$var wire 40 6 rx_out_data $end
$var wire 14 7 vid_info_det_inst/o_v_total $end
$var wire 14 8 vid_info_det_inst/o_h_total $end
$var wire 1 9 vid_info_det_inst/frame_stable $end
$var wire 14 a vid_info_det_inst/o_v_act $end
$var wire 14 b vid_info_det_inst/o_h_act $end
$var wire 14 c vid_info_det_inst/h_cnt $end
$var wire 14 d vid_info_det_inst/v_cnt $end
$upscope $end
$enddefinitions $end
#0
$dumpvars
x0
x1
x2
x3
x4
x5
bx 6
bx 7
bx 8
x9
bx a
bx b
bx c
bx d
$end
#0 $dumpon
00
11
02
13
14
15
b0001001100000100011000010010110001000110 6
b00010000111000 7
b00011000010011 8
09
b00000000000000 a
b00000000000000 b
b00000000000000 c
b00000000000000 d
#1
05
b0001001100000100011000010000110001001110 6
#3
15
b0001001100000100010100010011000001001000 6
#4
b0001001010000100011000010011110001000110 6
#5
05
#6
15
b0001001101000100010100010011000001000111 6
#7
05
b0001001101000100010101111110000001001111 6
#10
15
b0001001101000100011100010011110001000110 6
#11
b0001001110000100011000010010100001000100 6
#12
05
b0001001110000100011000010010100001001100 6
#14
15
b0001001110000100011100010011110001000111 6
#15
05
b0001001110000100011101011100110001001111 6
#17
15
b0001001101000100010100010010110001001000 6
#18
b0001001110000100011000010011000001000101 6
#19
05
b0001001110000100011010100010000001001001 6
#21
15
b0001001010000100011000010011000001000110 6
#22
b0001001011000100011100010010010001000111 6
#23
05
#24
15
b0001001011000100010100010011010001000111 6
#25
05
b0001001011000100010111100010010001001011 6
#28
15
b0001001011000100011000010010000001000110 6
#29
b0001001001000100010000010010100001000100 6
#30
05
b0001001001000100010000010010100001001000 6
#31
15
b0001001010000100011000010010110001000110 6
#32
05
b0001001010000100011010101100110001001010 6
#35
15
b0001001010000100011000010010110001000100 6
#36
b0001001000000100011100010010000001000101 6
#37
05
b0001001000000100011101010000000001001001 6
#38
15
b0001001001000100010100010010000001001000 6
#39
b0001001010000100010100010010000001000111 6
#40
05
#42
15
b0001001010000100010000010010100001000101 6
#43
05
b0001001010000100010010101010100001001001 6
#46
15
b0001001010000100011000010010100001000110 6
#47
b0001001010000100011000010010110001000111 6
#48
05
b0001001010000100011000010010110001001011 6
#49
15
b0001001011000100010100010001110001001000 6
#50
05
b0001001111000100010100010110110001001000 6
#53
15
b0001001000000100010100010010010001000110 6
#54
b0001001010000100010100010011010001000111 6
#55
05
b0001001010000100010111100111010001001011 6
#56
15
b0001001011000100011000010011010001000111 6
#57
b0001001101000100010000010010110001000100 6
#58
05
#60
15
b0001001010000100010100010011000001000101 6
#61
05
b0001001010000100010101011101000001001101 6
#63
15
b0001001101000100010100010010110001000101 6
#64
b0001001010000100011000010010110001000100 6
#65
05
b0001001010000100011000010010110001001000 6
#67
15
b0001001001000100010100010010100001000100 6
#68
05
b0001001001000100010101101010100001001000 6
#70
15
b0001001001000100011000010010100001000110 6
#71
b0001001011000100011100010010110001000101 6
#72
05
b0001001011000100011111001101110001001001 6
#74
15
b0001001011000100010000010010110001000101 6
#75
b0001001001000100010100010010010001000100 6
#76
05
#78
15
b0001001001000100010100010010110001000101 6
#79
05
b0001001001000100010111110010110001001001 6
#81
15
b0001001011000100001100010011000001000110 6
#82
b0001001011000100010100010010100001000101 6
#83
05
b0001001011000100010100010010100001001001 6
#85
15
b0001001010000100010000010010010001000100 6
#86
05
b0001001010000100000001101101010001001000 6
#88
15
b0001001001000100011000010010110001000101 6
#89
b0001001010000100010100010010100001000011 6
#90
05
b0001001010000100010101100001100001001011 6
#92
15
b0001001001000100011000010010000001000101 6
#93
b0001001010000100010000010010010001000100 6
#94
05
#95
15
b0001001011000100010100010010000001000100 6
#96
05
b0001001011000100010101110010000001001000 6
#99
15
b0001001001000100001100010010000001000110 6
#100
b0001001000000100001100010010110001000110 6
#101
05
b0001001000000100001100010010110001001010 6
#102
15
b0001001010000100011000010010100001000101 6
#103
05
b0001001010000100011010010010100001001001 6
#106
15
b0001001010000100010100010010000001000110 6
#107
b0001001010000100011100010010100001000110 6
#108
05
b0001001010000100011111000101100001001010 6
#110
15
b0001001011000100010000010001010001000101 6
#111
b0001001001000100011100010010110001000100 6
#112
05
#113
15
b0001001000000100010100010011000001000011 6
#114
05
b0001001000000100010101001000000001001011 6
#117
15
b0001001001000100010000010010100001000100 6
#118
b0001001010000100010100010010100001000110 6
#119
05
b0001001010000100010100010010100001001010 6
#120
15
b0001001010000100011000010010110001000111 6
#121
05
b0001001010000100011010110101110001001011 6
#124
15
b0001001010000100011100010010010001000101 6
#125
b0001001001000100011100010010100001000111 6
#126
05
b0001001001000100011110010001100001001011 6
#127
15
b0001001010000100010100010010000001000101 6
#128
b0001000111000100010100010010010001000110 6
#129
05
#131
15
b0001001000000100011100010010110001000110 6
#132
05
b0001001000000100011101110011110001001010 6
#134
15
b0001001001000100011100010011000001000111 6
#135
b0001001001000100011000010010100001000110 6
#136
05
b0001001001000100011000010010100001001110 6
#138
15
b0001001100000100010100010011000001000101 6
#139
05
b0001001000000100010111000110000001001001 6
#142
15
b0001001011000100010000010011010001000110 6
#143
b0001001001000100010100010010100001000110 6
#144
05
b0001001001000100010111101100100001001010 6
#145
15
b0001001011000100011000010010110001000100 6
#146
b0001001001000100100100010010010001000100 6
#147
05
#149
15
b0001001010000100010100010010110001000101 6
#150
05
b0001001010000100010100100000110001001101 6
#152
15
b0001001100000100011000010011000001000100 6
#153
b0001001011000100010000010011010001000101 6
#154
05
b0001001011000100010000010011010001001001 6
#156
15
b0001001010000100011100010010110001000111 6
#157
05
b0001001110000100011101001010110001001111 6
#159
15
b0001001101000100010000010010100001000110 6
#160
b0001001000000100011100010011000001000111 6
#161
05
b0001001000000100011111001010000001001011 6
#163
15
b0001001011000100010000010010100001000110 6
#164
b0001001011000100010000010010000001000101 6
#165
05
#166
15
b0001001011000100010100010011000001000100 6
#167
05
b0001001011000100010100101001000001001000 6
#170
15
b0001001000000100011000010010100001000101 6
#171
b0001001000000100010100010010110001000100 6
#172
05
#174
15
b0001000110000100010000010010000001000110 6
#175
05
b0001001010000100010001100110000001001010 6
#177
15
b0001001001000100011000010010010001000110 6
#178
b0001001010000100010100010010010001000110 6
#179
05
b0001001010000100010111101100010001000110 6
#181
15
b0001000111000100011000010001110001000100 6
#182
b0001001100000100010000010010010001000011 6
#183
05
#184
15
b0001001001000100010100010011000001000110 6
#185
05
b0001001001000100010100001101000001001010 6
#188
15
b0001001000000100010000010001110001000101 6
#189
b0001001011000100011100010010110001000100 6
#190
05
b0001001011000100011100010010110001001100 6
#191
15
b0001001101000100010100010010010001000110 6
#192
05
b0001001001000100010110110101010001001010 6
#195
15
b0001001010000100011100010010010001000101 6
#196
b0001001001000100010100010010110001000101 6
#197
05
b0001001001000100010110001101110001001001 6
#198
15
b0001001010000100010000010001110001000101 6
#199
b0001001001000100011100010010110001000110 6
#200
05
#202
15
b0001001001000100010100010010100001000100 6
#203
05
b0001001001000100010100100010100001001000 6
#206
15
b0001001000000100011000010010000001000110 6
#207
b0001001001000100010000010010100001000100 6
#208
05
b0001001001000100010000010010100001001000 6
#209
15
b0001001001000100010100010010010001000101 6
#210
05
b0001001001000100010100011101010001001001 6
#213
15
b0001001000000100010100010010110001000101 6
#214
b0001001010000100011000010010010001000101 6
#215
05
b0001001010000100011010011101010001001001 6
#216
15
b0001001010000100010100010001110001000101 6
#217
b0001001000000100001100010001110001000100 6
#218
05
#220
15
b0001000111000100010000010010110001000110 6
#221
05
b0001000111000100010001110011110001001010 6
#223
15
b0001001001000100001100010010000001000011 6
#224
b0001000111000100010000010010110001000101 6
#225
05
b0001000111000100010000010010110001001001 6
#227
15
b0001001001000100010100010001110001000110 6
#228
05
b0001000101000100000110011000110001000110 6
#230
15
b0001000110000100010100010010100001000100 6
#231
b0001001010000100001100010001110001000011 6
#232
05
b0001001010000100001110101100110001001011 6
#234
15
b0001001010000100011000010001110001000100 6
#235
b0001001001000100001100010010100001000011 6
#236
05
#238
15
b0001001001000100011000010010000001000100 6
#239
05
b0001001001000100011000011001000001001000 6
#241
15
b0001001000000100010100010010100001000101 6
#242
b0001001000000100011000010010010001000111 6
#243
05
b0001001000000100011000010010010001001011 6
#245
15
b0001001000000100010000010010000001000100 6
#246
05
b0001001000000100010010011000000001001000 6
#248
15
b0001001010000100010100010010100001000100 6
#249
b0001001011000100010100010010010001000100 6
#250
05
b0001001011000100010101100000010001001000 6
#252
15
b0001001001000100011000010010000001000100 6
#253
b0001000111000100010000010010000001000101 6
#254
05
#255
15
b0001001000000100010000010001110001000100 6
#256
05
b0001001000000100010000001111110001001000 6
#259
15
b0001001000000100010000010001110001000011 6
#260
b0001001000000100001100010010010001000100 6
#261
05
b0001001000000100001100010010010001001000 6
#262
15
b0001001000000100001100010010000001000011 6
#263
05
b0001001000000100011110110000000001001011 6
#266
15
b0001001010000100001100010010000001000100 6
#267
b0001000110000100010000010010000001000100 6
#268
05
b0001000110000100010010000000000001000100 6
#270
15
b0001000110000100010000010010000001000100 6
#271
b0001000111000100001100010010010001000100 6
#272
05
#273
15
b0001001001000100001100010010010001000100 6
#274
05
b0001001001000100011111001001010001001000 6
#277
15
b0001001011000100010000010001100001000101 6
#278
b0001001000000100010000010010100001000100 6
#279
05
#280
15
b0001000111000100010100010010100001000011 6
#281
05
b0001001011000100000100011000100001001011 6
#284
15
b0001001000000100010100010001100001000100 6
#285
b0001001001000100010000010010000001000010 6
#286
05
b0001001001000100010011001110000001000110 6
#287
15
b0001000111000100010000010001110001000010 6
#288
b0001001011000100001000010001110001000100 6
#289
05
#291
15
b0001000111000100001100010001110001000100 6
#292
05
b0001000111000100011100001000110001001000 6
#294
15
b0001001000000100010000010010100001000100 6
#295
b0001001000000100010100010001100001000101 6
#296
05
b0001001000000100010100010001100001001001 6
#298
15
b0001001001000100011000010010010001000100 6
#299
05
b0001001001000100011011000101010001000100 6
#302
15
b0001000111000100010000010010010001000101 6
#303
b0001001001000100010100010010100001000101 6
#304
05
b0001001001000100010110100000100001001001 6
#305
15
b0001001010000100001000010010000001000100 6
#306
b0001001010000100010000010010000001000110 6
#307
05
#309
15
b0001000110000100010100010001100001000100 6
#310
05
b0001000110000100010100100100100001001000 6
#312
15
b0001001000000100011000010010010001000100 6
#313
b0001001010000100010100010001110001000100 6
#314
05
b0001001010000100010100010001110001001000 6
#316
15
b0001001001000100010000010010000001000101 6
#317
05
b0001001001000100000000000100000001001001 6
#319
15
b0001001000000100010000010010010001000100 6
#320
b0001000111000100011000010010100001000011 6
#321
05
b0001000111000100011001010110100001001011 6
#323
15
b0001001001000100010100010010010001000110 6
#324
b0001001010000100010000010001100001000101 6
#325
05
#326
15
b0001001000000100001100010010100001000010 6
#327
05
b0001001000000100011100111100100001001010 6
#330
15
b0001001000000100001100010001110001000100 6
#331
b0001000111000100010100010010010001000101 6
#332
05
b0001000111000100010100010010010001001001 6
#334
15
b0001001001000100010100010010000001000101 6
#335
05
b0001000101000100010110101101000001001001 6
#337
15
b0001001010000100011000010001110001000101 6
#338
b0001001000000100001100010001100001000100 6
#339
05
b0001001000000100001100011110100001001000 6
#341
15
b0001001000000100010100010001110001000110 6
#342
b0001001000000100010000010010000001000011 6
#343
05
#344
15
b0001001010000100010000010001100001000101 6
#345
05
b0001001010000100010011111000100001000101 6
#348
15
b0001000111000100001100010001100001000100 6
#349
b0001001000000100010000010010000001000101 6
#350
05
b0001001000000100010000010010000001001001 6
#351
15
b0001001000000100010100010010000001000011 6
#352
05
b0001001000000100010101001011000001001011 6
#355
15
b0001001001000100010000010010100001000011 6
#356
b0001000111000100001100010010010001000101 6
#357
05
b0001000111000100001100111000010001001001 6
#358
15
b0001001000000100001100010001100001000100 6
#359
b0001001001000100010100010010000001000011 6
#360
05
#362
15
b0001000110000100001100010010000001000011 6
#363
05
b0001000110000100011111011100000001000111 6
#366
15
b0001000111000100010100010001110001000100 6
#367
b0001001000000100010100010010000001000101 6
#368
05
#369
15
b0001000110000100001100010010010001000101 6
#370
05
b0001001010000100011110010010010001000101 6
#373
15
b0001000110000100010100010010000001000010 6
#374
b0001001000000100011000010010000001000101 6
#375
05
b0001001000000100011010110001000001001001 6
#376
15
b0001001010000100001100010010000001000101 6
#377
b0001001000000100010100010001010001000100 6
#378
05
#380
15
b0001000111000100010000010010010001000011 6
#381
05
b0001000111000100010010010001010001001011 6
#383
15
b0001001010000100010100010010000001000101 6
#384
b0001001000000100001100010010000001000101 6
#385
05
b0001001000000100001100010010000001001001 6
#387
15
b0001001000000100011000010010010001000011 6
#388
05
b0001001000000100001000010011010001001011 6
#390
15
b0001001000000100010100010010000001000011 6
#391
b0001000111000100011000010010010001000011 6
#392
05
b0001000111000100011000110110010001001011 6
#394
15
b0001001000000100001100010010010001000110 6
#395
b0001000111000100010000010001010001000101 6
#396
05
#398
15
b0001001000000100011000010010000001000101 6
#399
05
b0001001000000100011000011001000001001001 6
#401
15
b0001001000000100010100010001100001000101 6
#402
b0001001000000100010000010001110001000101 6
#403
05
#405
15
b0001000111000100010100010001110001000100 6
#406
05
b0001000111000100000111001100110001000100 6
#408
15
b0001000111000100010000010001110001000100 6
#409
b0001001001000100010000010001110001000011 6
#410
05
b0001001001000100010010111100110001000111 6
#412
15
b0001000110000100001100010001110001000100 6
#413
b0001000111000100001100010001110001000010 6
#414
05
#415
15
b0001001000000100010000010010000001000011 6
#416
05
b0001001000000100010011001101000001000111 6
#419
15
b0001000111000100010000010001110001000101 6
#420
b0001000101000100010000010001110001000101 6
#421
05
#422
15
b0001000110000100001100010001010001000101 6
#423
05
b0001000110000100011100001000010001001001 6
#426
15
b0001001000000100010000010001100001000100 6
#427
b0001000111000100010000010001110001000100 6
#428
05
b0001000111000100010000000010110001001000 6
#430
15
b0001001000000100010000010010000001000010 6
#431
b0001000111000100010000010001100001000100 6
#432
05
#433
15
b0001000111000100010000010010000001000011 6
#434
05
b0001000111000100000011001000000001000111 6
#437
15
b0001000111000100010000010001100001000100 6
#438
b0001000110000100011000010001010001000011 6
#439
05
b0001000110000100011000010001010001000111 6
#440
15
b0001000111000100010000010001010001000010 6
#441
05
b0001000111000100010000101100010001001010 6
#444
15
b0001001000000100001000010001110001000100 6
#445
b0001000111000100010000010001110001000101 6
#446
05
b0001000111000100010001010001110001000101 6
#447
15
b0001000101000100010100010010000001000101 6
#448
b0001001001000100001100010001110001000010 6
#449
05
#451
15
b0001000110000100010100010001110001000101 6
#452
05
b0001000110000100010110000100110001000101 6
#454
15
b0001000110000100010000010001010001000100 6
#455
b0001000111000100010000010001010001000100 6
#456
05
#458
15
b0001000110000100001000010001100001000010 6
#459
05
b0001001010000100001010111011100001000110 6
#462
15
b0001000110000100001100010001100001000011 6
#463
b0001000101000100001100010010000001000011 6
#464
05
b0001000101000100001101010111000001000111 6
#465
15
b0001000101000100010100010001010001000011 6
#466
b0001000110000100010100010010000001000110 6
#467
05
#469
15
b0001000111000100001000010001100001000100 6
#470
05
b0001000111000100011001110100100001000100 6
#472
15
b0001000101000100001100010001010001000100 6
#473
b0001000111000100010000010001110001000100 6
#474
05
#476
15
b0001000111000100010000010001110001000101 6
#477
05
b0001000111000100000010000010110001000101 6
#479
15
b0001000110000100010000010010000001000110 6
#480
b0001001000000100010000010001100001000011 6
#481
05
b0001001000000100010011111001100001000111 6
#483
15
b0001000111000100001100010010100001000101 6
#484
b0001000111000100010000010001000001000101 6
#485
05
#486
15
b0001000101000100001100010001110001000100 6
#487
05
b0001000101000100001111111000110001000100 6
#490
15
b0001000111000100001100010001100001000100 6
#491
b0001001001000100001100010001100001000011 6
#492
05
b0001001001000100001100010001100001001011 6
#494
15
b0001001010000100010000010001100001000100 6
#495
05
b0001001010000100010011001010100001000100 6
#497
15
b0001000111000100010000010001100001000110 6
#498
b0001000110000100001000010010000001000100 6
#499
05
b0001000110000100001001011011000001000100 6
#501
15
b0001000101000100010100010001100001000011 6
#502
b0001001000000100001100010001110001000100 6
#503
05
#504
15
b0001001000000100001100010001100001000011 6
#505
05
b0001001000000100011100001011100001001011 6
#508
15
b0001001000000100010000010001100001000011 6
#509
b0001001000000100001100010001110001000100 6
#510
05
#511
15
b0001000111000100001100010010000001000101 6
#512
05
b0001000111000100001100010101000001001001 6
#514
15
b0001001000000100010100010001010001000101 6
#515
b0001001000000100001100010001100001000011 6
#516
b0001000111000100010000010001010001000100 6
#517
04
05
b0000000000000000000000000000000000000000 6
#755
01
#815
10
#817
00
#861
11
#1008
b0001000010000100101000010001000001000110 6
#1024
14
15
#1025
b0001000101000100100000010000110001000111 6
#1026
b0001000100000100011000010001000001000100 6
#1027
b0001000100000100100100010001100001000111 6
#1028
b0001000100000100011100010000110001001010 6
#1029
b0001000100000100010100010001000001000110 6
#1030
b0001000110000100011100010001000001001000 6
#1031
b0001000101000100011100010001000001000101 6
#1032
b0001000110000100011000010001000001000111 6
#1033
b0001000101000100100100010001010001001000 6
#1034
b0001000110000100011100010001010001001000 6
#1035
b0001000101000100101000010001000001000111 6
#1036
05
#1037
15
b0001000101000100100100010001010001001000 6
#1038
05
b0001000101000100010101010110010001000100 6
#1041
15
b0001000101000100100100010001010001000110 6
#1042
b0001000101000100100000010001100001000111 6
#1043
05
b0001000101000100100001100100100001000111 6
#1044
15
b0001000101000100011000010001010001001000 6
#1045
b0001000110000100011000010001100001001010 6
#1046
05
#1048
15
b0001000110000100100100010001010001001000 6
#1049
05
b0001000110000100100101000101010001000100 6
#1051
15
b0001000101000100100000010001010001001001 6
#1052
b0001000100000100100100010001100001001000 6
#1053
05
b0001000100000100100100010001100001000100 6
#1055
15
b0001000101000100100000010001100001001000 6
#1056
05
b0001000001000100010000000110100001000100 6
#1058
15
b0001000100000100100000010001010001001010 6
#1059
b0001000110000100011100010000110001000111 6
#1060
05
b0001000110000100011100000111110001000111 6
#1062
15
b0001000100000100100000010001010001001011 6
#1063
b0001000101000100100100010001110001001010 6
#1064
05
#1066
15
b0001000101000100011100010001010001001000 6
#1067
05
b0001000101000100011101000011010001000100 6
#1069
15
b0001000101000100100000010001000001000111 6
#1070
b0001000100000100100000010001010001000111 6
#1071
05
#1073
15
b0001000110000100011100010001100001001000 6
#1074
05
b0001000110000100011110010101100001000100 6
#1076
15
b0001000110000100100100010001010001001001 6
#1077
b0001000100000100100000010001000001000111 6
#1078
05
b0001000100000100100000010100000001000111 6
#1080
15
b0001000100000100100100010001010001001000 6
#1081
b0001000110000100100000010001000001001000 6
#1082
05
#1083
15
b0001000100000100100100010001100001001001 6
#1084
05
b0001000100000100010101000010100001000101 6
#1087
15
b0001000101000100100000010001000001001010 6
#1088
b0001000110000100101000010001100001000110 6
#1089
05
#1090
15
b0001000110000100011100010001100001000111 6
#1091
05
b0001000010000100011101010100100001000111 6
#1094
15
b0001000101000100100100010001010001001000 6
#1095
b0001000101000100101000010000110001000111 6
#1096
05
b0001000101000100101000001111110001000111 6
#1098
15
b0001000100000100100000010000110001000111 6
#1099
b0001000101000100100000010000110001001001 6
#1100
05
#1101
15
b0001000110000100100100010001100001001000 6
#1102
05
b0001000110000100100101000010100001000100 6
#1105
15
b0001000101000100100000010001000001001010 6
#1106
b0001000110000100100000010001110001001000 6
#1107
05
b0001000110000100100000010001110001000000 6
#1108
15
b0001000011000100100100010001100001001011 6
#1109
05
b0001000011000100100110110101100001000111 6
#1112
15
b0001000110000100011100010001010001001001 6
#1113
b0001000101000100011100010000110001001001 6
#1114
05
b0001000101000100011101101110110001000101 6
#1115
15
b0001000101000100101000010001110001001010 6
#1116
b0001000111000100101000010000110001001001 6
#1117
05
#1119
15
b0001000101000100100000010001110001001000 6
#1120
05
b0001000101000100100010110100110001000100 6
#1122
15
b0001000110000100011100010001010001001000 6
#1123
b0001000110000100101100010001110001001010 6
#1124
05
b0001000110000100101100010001110001000110 6
#1126
15
b0001000111000100110000010010000001001011 6
#1127
05
b0001001011000100100010100111000001000111 6
#1130
15
b0001000110000100101000010001010001001011 6
#1131
b0001000110000100101000010010000001001001 6
#1132
05
b0001000110000100101011100100000001000101 6
#1133
15
b0001000111000100101000010001010001001000 6
#1134
b0001000101000100100000010001110001001010 6
#1135
05
#1137
15
b0001000101000100101000010001010001001000 6
#1138
05
b0001000101000100101010001110010001000100 6
#1140
15
b0001000110000100100000010001110001000110 6
#1141
b0001000100000100101000010001100001001010 6
#1142
05
#1144
15
b0001001000000100101000010001110001001001 6
#1145
05
b0001000100000100101010000110110001000101 6
#1147
15
b0001000110000100100000010001010001001010 6
#1148
b0001000111000100101100010001110001001001 6
#1149
05
b0001000111000100101110101100110001000101 6
#1151
15
b0001000110000100101000010001110001001000 6
#1152
b0001000101000100101100010001010001001010 6
#1153
05
#1154
15
b0001000111000100011100010001110001001010 6
#1155
05
b0001000111000100101110111010110001000110 6
#1158
15
b0001000110000100101100010001100001001010 6
#1159
b0001000110000100101000010001110001001011 6
#1160
05
b0001000110000100101000010001110001000111 6
#1162
15
b0001000101000100101100010001010001001010 6
#1163
05
b0001000101000100111100011001010001000110 6
#1165
15
b0001000100000100100100010001100001001001 6
#1166
b0001000100000100101100010001100001001100 6
#1167
05
b0001000100000100101110010001100001000100 6
#1169
15
b0001000110000100100100010010000001001001 6
#1170
b0001000111000100111000010001000001001010 6
#1171
05
#1172
15
b0001000101000100110000010001010001001010 6
#1173
05
b0001000101000100100001010010010001000110 6
#1176
15
b0001000101000100100100010001000001001010 6
#1177
b0001000100000100110000010001010001001010 6
#1178
05
b0001000100000100110000010001010001000110 6
#1179
15
b0001000101000100110100010001100001001100 6
#1180
05
b0001000101000100100111100101100001000100 6
#1183
15
b0001000111000100101000010001010001001001 6
#1184
b0001000110000100100100010001010001001001 6
#1185
05
b0001000110000100100110111101010001000101 6
#1186
15
b0001000110000100101100010001110001001101 6
#1187
b0001000101000100101000010001100001001110 6
#1188
05
#1190
15
b0001000110000100101000010001100001001010 6
#1191
05
b0001000110000100101010000010100001000110 6
#1194
15
b0001000110000100100000010001000001001010 6
#1195
b0001000101000100100100010010000001001011 6
#1196
05
b0001000101000100100100010010000001000111 6
#1197
15
b0001000110000100100000010001010001001001 6
#1198
05
b0001000110000100110010011101010001000101 6
#1201
15
b0001000110000100100100010001110001001001 6
#1202
b0001000101000100110000010001000001001101 6
#1203
05
b0001000101000100110011010100000001000101 6
#1204
15
b0001000111000100100100010010010001001100 6
#1205
b0001000101000100101000010001110001001010 6
#1206
05
#1208
15
b0001001001000100101000010001100001001010 6
#1209
05
b0001001001000100101011011110100001000110 6
#1211
15
b0001000111000100100100010001110001001010 6
#1212
b0001000111000100100100010001010001001010 6
#1213
05
b0001000111000100100100010001010001000110 6
#1215
15
b0001000111000100110000010001110001001010 6
#1216
05
b0001000111000100100010011010110001000110 6
#1218
15
b0001000110000100100100010001100001001010 6
#1219
b0001000100000100101100010001010001001001 6
#1220
05
b0001000100000100101101011011010001000101 6
#1222
15
b0001000101000100100100010001100001001011 6
#1223
b0001000110000100110000010001100001001001 6
#1224
05
#1226
15
b0001000111000100100100010001110001001000 6
#1227
05
b0001000111000100100110010111110001000100 6
#1229
15
b0001000110000100100100010001010001001011 6
#1230
b0001001000000100110000010001110001001011 6
#1231
05
b0001001000000100110000010001110001000111 6
#1233
15
b0001000110000100110000010001110001001100 6
#1234
05
b0001000110000100100010100001110001000100 6
#1236
15
b0001000110000100101000010010000001001001 6
#1237
b0001000111000100101000010001100001001001 6
#1238
05
b0001000111000100101011101110100001000101 6
#1240
15
b0001000111000100101000010001110001001010 6
#1241
b0001000110000100100100010001010001001011 6
#1242
05
#1243
15
b0001000111000100100000010001110001001010 6
#1244
05
b0001000111000100100000111100110001001010 6
#1247
15
b0001001000000100101100010001110001001100 6
#1248
b0001000111000100110000010001110001001010 6
#1249
05
b0001000111000100110000010001110001000110 6
#1250
15
b0001000110000100110000010001110001001100 6
#1251
05
b0001000110000100100010001010110001000100 6
#1254
15
b0001000110000100110000010001100001001010 6
#1255
b0001000111000100101000010001110001001010 6
#1256
05
b0001000111000100101011110011110001000110 6
#1258
15
b0001000111000100101100010001000001001011 6
#1259
b0001000110000100110000010001110001001001 6
#1260
05
#1261
15
b0001000111000100101000010010000001001100 6
#1262
05
b0001000111000100101010110110000001000100 6
#1265
15
b0001000110000100101100010001010001001010 6
#1266
b0001001000000100101000010001100001001001 6
#1267
05
b0001001000000100101000010001100001000101 6
#1268
15
b0001000101000100100100010001100001001010 6
#1269
05
b0001000101000100100110011001100001000110 6
#1272
15
b0001000110000100100100010001100001001101 6
#1273
b0001001000000100101000010001110001001010 6
#1274
05
b0001001000000100101011100101110001000110 6
#1275
15
b0001000111000100101000010001010001001001 6
#1276
b0001000111000100011100010001110001001010 6
#1277
05
#1279
15
b0001001000000100100000010010010001001011 6
#1280
05
b0001001000000100100000100000010001001011 6
#1282
15
b0001001000000100111000010010000001001100 6
#1283
b0001001001000100100100010001100001001011 6
#1284
05
b0001001001000100100100010001100001000111 6
#1286
15
b0001000110000100101100010001110001001001 6
#1287
05
b0001000110000100111110101011110001000101 6
#1290
15
b0001000110000100101000010001100001001011 6
#1291
b0001000110000100101000010001110001001100 6
#1292
05
b0001000110000100101000110010110001001000 6
#1293
15
b0001001000000100101100010010000001001010 6
#1294
b0001000110000100101000010001110001001010 6
#1295
05
#1297
15
b0001000110000100101100010010000001001100 6
#1298
05
b0001000110000100111110100111000001001000 6
#1300
15
b0001001010000100101000010001010001001011 6
#1301
b0001000110000100101000010010000001001100 6
#1302
05
b0001000110000100101000010010000001001000 6
#1304
15
b0001001001000100101100010001110001001010 6
#1305
05
b0001001001000100101110001111110001001010 6
#1307
15
b0001001010000100110000010001110001001011 6
#1308
b0001000110000100110100010010000001001011 6
#1309
05
b0001000110000100110110110111000001000111 6
#1311
15
b0001000110000100101100010001010001001011 6
#1312
b0001000101000100110000010001110001001100 6
#1313
05
#1314
15
b0001000111000100101000010001110001001011 6
#1315
05
b0001000111000100101010011011110001000111 6
#1318
15
b0001000110000100100100010001100001001011 6
#1319
b0001000111000100101000010001100001001011 6
#1320
05
#1322
15
b0001001000000100110000010010000001001010 6
#1323
05
b0001000100000100100011101100000001000110 6
#1325
15
b0001000111000100101000010001110001001100 6
#1326
b0001000100000100101000010001110001001011 6
#1327
05
b0001000100000100101011110011110001000111 6
#1329
15
b0001000111000100101100010001000001001011 6
#1330
b0001001001000100101000010001110001001100 6
#1331
05
#1332
15
b0001000111000100110100010010000001001011 6
#1333
05
b0001000111000100100101110101000001001011 6
#1336
15
b0001001001000100101100010001010001001101 6
#1337
b0001001000000100100100010010100001001011 6
#1338
05
b0001001000000100100100010010100001000111 6
#1339
15
b0001000111000101000000010010000001001110 6
#1340
05
b0001000111000100110000101100000001001010 6
#1343
15
b0001001000000100111000010010110001001100 6
#1344
b0001001000000100101100010001110001001101 6
#1345
05
b0001001000000100101110001110110001000101 6
#1346
15
b0001000110000100110000010001110001001010 6
#1347
b0001000110000100111000010010100001001101 6
#1348
05
#1350
15
b0001001001000100110000010010000001001100 6
#1351
05
b0001001001000100110001011010000001001000 6
#1354
15
b0001001001000100100100010001100001001110 6
#1355
b0001000110000100110000010001010001001101 6
#1356
05
b0001000110000100110000010001010001001001 6
#1357
15
b0001001001000100101100010010000001001100 6
#1358
05
b0001000101000100101110101101000001000100 6
#1361
15
b0001000110000100101000010001110001001001 6
#1362
b0001000111000100101100010001110001001010 6
#1363
05
b0001000111000100101101001111110001000110 6
#1364
15
b0001000101000100110000010001110001001011 6
#1365
b0001000111000100111000010010100001001101 6
#1366
05
#1368
15
b0001000110000100100100010001100001001011 6
#1369
05
b0001000110000100100110100011100001000111 6
#1371
15
b0001000110000100111000010010000001001011 6
#1372
b0001000111000100111000010001100001001011 6
#1373
05
b0001000111000100111000010001100001000111 6
#1375
15
b0001000111000100111000010001110001001010 6
#1376
05
b0001001011000100101010000001110001001010 6
#1378
15
b0001001010000100110000010010000001001101 6
#1379
b0001001001000100110000010010000001001011 6
#1380
05
b0001001001000100110010000011000001000111 6
#1382
15
b0001000110000100110000010010000001001011 6
#1383
b0001000100000100101100010010000001001100 6
#1384
05
#1386
15
b0001001010000100101100010001110001001010 6
#1387
05
b0001001010000100101101010000110001000110 6
#1389
15
b0001000101000100110100010010000001010000 6
#1390
b0001000110000100101100010001100001001010 6
#1391
05
#1393
15
b0001001000000100110000010001110001001001 6
#1394
05
b0001000100000100100011110010110001000101 6
#1396
15
b0001000111000100101100010010000001001010 6
#1397
b0001000101000100110100010001010001001011 6
#1398
05
b0001000101000100110111101011010001000111 6
#1400
15
b0001000111000100101000010001100001001011 6
#1401
b0001001000000100101000010001100001001100 6
#1402
05
#1403
15
b0001000110000100101100010001100001001100 6
#1404
05
b0001000110000100101111010111100001000100 6
#1407
15
b0001000111000100100100010001010001001011 6
#1408
b0001000111000100111000010001100001001010 6
#1409
05
b0001000111000100111000010001100001000110 6
#1410
15
b0001000111000100101000010010000001001001 6
#1411
05
b0001000111000100101001111000000001000101 6
#1414
15
b0001000101000100101100010001100001001100 6
#1415
b0001000110000100110100010001100001001010 6
#1416
05
b0001000110000100110101000000100001001010 6
#1418
15
b0001001001000100110000010010000001001100 6
#1419
b0001000101000100110000010010010001001011 6
#1420
05
#1421
15
b0001000110000100101100010001110001001100 6
#1422
05
b0001000110000100101100011001110001001000 6
#1425
15
b0001001000000100110100010001100001001101 6
#1426
b0001001000000100100100010010000001001011 6
#1427
05
b0001001000000100100100010010000001000111 6
#1428
15
b0001000111000100101100010001100001001001 6
#1429
05
b0001000111000100101111101110100001000101 6
