la2_waveform.vcd
$date today $end
$timescale 1 ns $end
$scope module top $end
$var wire 1 0 mipi_rx_ck0_HS_TERM $end
$var wire 1 1 mipi_rx_ck0_LP_N_IN $end
$var wire 1 2 mipi_rx_ck0_HS_ENA $end
$var wire 1 3 mipi_rx_ck0_LP_P_IN $end
$var wire 1 4 mipi_rx_dp00_FIFO_RD $end
$var wire 1 5 mipi_rx_dp00_HS_TERM $end
$var wire 1 6 mipi_rx_dp00_LP_P_IN $end
$var wire 1 7 mipi_rx_dp01_FIFO_EMPTY $end
$var wire 1 8 mipi_rx_dp01_HS_ENA $end
$var wire 1 9 mipi_rx_dp00_FIFO_EMPTY $end
$var wire 1 a mipi_rx_dp00_LP_N_IN $end
$var wire 8 b mipi_rx_dp00_HS_IN $end
$var wire 8 c mipi_rx_dp01_HS_IN $end
$var wire 1 d mipi_rx_dp01_HS_TERM $end
$var wire 1 e mipi_rx_dp00_HS_ENA $end
$var wire 1 f mipi_rx_dp01_FIFO_RD $end
$var wire 1 10 inst_efx_csi2_rx/reset_n $end
$var wire 1 11 inst_efx_csi2_rx/reset_byte_HS_n $end
$var wire 1 12 inst_efx_csi2_rx/reset_pixel_n $end
$var wire 8 13 mipi_rx_dp02_HS_IN $end
$var wire 8 14 mipi_rx_dp03_HS_IN $end
$upscope $end
$enddefinitions $end
#0
$dumpvars
x0
x1
x2
x3
x4
x5
x6
x7
x8
x9
xa
bx b
bx c
xd
xe
xf
x10
x11
x12
bx 13
bx 14
$end
#0 $dumpon
10
01
12
03
14
05
16
07
08
09
1a
b00000000 b
b00000000 c
0d
0e
1f
110
111
112
b00000000 13
b00000000 14
#1
11
13
#68
01
03
#72
06
#74
0a
#77
15
1d
#79
18
1e
#92
b11101110 b
b00101110 c
b01101110 13
b01101110 14
#93
b10001010 b
b01011000 c
b10000010 13
b01000111 14
#94
b00000100 b
b01000100 c
b01000100 13
b01000100 14
#95
b01100100 b
b11000100 c
b10000100 13
#96
b01000100 b
b01001001 c
b00000100 13
#97
b01000100 c
b01011110 13
b11000100 14
#98
b10000100 b
b10000100 13
b01010100 14
#99
b00000100 b
b10000100 c
b01000100 13
b10000100 14
#100
b00010100 b
b01000100 c
b10000100 13
b01000100 14
#101
b01000100 b
b01110010 c
b01000100 13
#102
b00000100 b
b01000100 c
b01101010 13
b11000100 14
#103
b10000100 b
b00000100 c
b01000100 13
b01011111 14
#104
b00000100 b
b01000100 c
b10000100 14
#105
b01001111 b
b11000100 c
b01000100 14
#106
b01000100 b
b01000001 c
b10000100 13
#107
b01000100 c
b01011101 13
#108
b10000100 13
b01101101 14
#109
b11000100 b
b01000100 13
b10000100 14
#110
b01000001 b
b11000100 c
b01000100 14
#111
b01000100 b
b01000000 c
b11000100 13
b10000100 14
#112
b01000100 c
b01001100 13
b00000100 14
#113
b10000100 b
b01000100 13
b01011000 14
#114
b00000100 b
b01000100 14
#115
b01111101 b
b11000100 c
b10000100 13
#116
b10000100 b
b01011111 c
b01000100 13
#117
b01000100 b
b01000100 c
b01000000 13
b11000100 14
#118
b10000100 b
b10000100 13
b01011100 14
#119
b00000100 b
b10000100 c
b01000100 13
b10000100 14
#120
b01010000 b
b00000100 c
b01000100 14
#121
b01000100 b
b01100000 c
b10000100 13
b10000100 14
#122
b01000100 c
b01001101 13
b00000100 14
#123
b10000100 b
b10000100 13
b01101101 14
#124
b00000100 b
b10000100 c
b01000100 13
b10000100 14
#125
b01000010 b
b00000100 c
b10000100 13
b00000100 14
#126
b01000100 b
b01000010 c
b01000100 14
#127
b10000100 c
b00001111 13
b10000100 14
#128
b01000100 c
b01000100 13
b01100000 14
#129
b11000100 b
b10000100 c
b10000100 14
#130
b00011100 b
b01000100 c
b10000100 13
b01000100 14
#131
b01000100 b
b01110000 c
b00000100 13
#132
b01000100 c
b01001100 13
b11000100 14
#133
b10000100 b
b01000100 13
b01011101 14
#134
b01000100 b
b10000100 c
b10000100 14
#135
b01101001 b
b00000100 c
b10000100 13
b01000100 14
#136
b10000100 b
b01010101 c
b00000100 13
#137
b01000100 b
b10000100 c
b01100001 13
b11000100 14
#138
b01000100 c
b10000100 13
b01010001 14
#139
b11000100 b
b10000100 c
b01000100 13
b10000100 14
#140
b01010100 b
b00000100 c
b01000100 14
#141
b10000100 b
b01100001 c
b11000100 13
#142
b01000100 b
b01000100 c
b01010011 13
b10000100 14
#143
b10000100 13
b01101010 14
#144
b11000100 b
b10000100 c
b01000100 13
b10000100 14
#145
b01100000 b
b01000100 c
b01000100 14
#146
b10000100 b
b01100001 c
b10000100 13
b10000100 14
#147
b01000100 b
b10000100 c
b01010110 13
b00000100 14
#148
b01000100 c
b10000100 13
b10100000 14
#149
b11000100 b
b10000100 c
b00000100 13
b10000100 14
#150
b01010001 b
b00000100 c
b01000100 13
b01000100 14
#151
b10000100 b
b01001111 c
b10000100 13
b10000100 14
#152
b01000100 b
b10000100 c
b01010001 13
b01000100 14
#153
b10000100 b
b01000100 c
b10000100 13
b01010110 14
#154
b01000100 b
b10000100 c
b01000100 13
b10000100 14
#155
b01000101 b
b01000100 14
#156
b10000100 b
b01010001 c
b11000100 13
b10000100 14
#157
b01000100 b
b10000100 c
b01100101 13
b00000100 14
#158
b10000100 b
b01000100 c
b10000100 13
b01010001 14
#159
b10000100 c
b01000100 13
b10000100 14
#160
b01100000 b
b01000100 c
b10000100 13
b01000100 14
#161
b10000100 b
b01010010 c
#162
b01000100 b
b01000100 c
b01010101 13
b11000100 14
#163
b10000100 13
b01001100 14
#164
b11000100 b
b01000100 13
b10000100 14
#165
b01101010 b
b11000100 c
b10000100 13
b01000100 14
#166
b10000100 b
b01110101 c
b01000100 13
b10000100 14
#167
b01000100 b
b10000100 c
b01100111 13
b11000100 14
#168
b10000100 b
b01000100 c
b01000100 13
b01101011 14
#169
b01000100 b
b10000100 c
b10000100 14
#170
b01111100 b
b01000100 c
b01000100 14
#171
b10000100 b
b01010000 c
b11000100 13
b10000100 14
#172
b01000100 b
b01000100 c
b01011110 13
#173
b10000100 b
b10000100 13
b01011111 14
#174
b00000100 b
b10000100 c
b01000100 13
b10000100 14
#175
b01010011 b
b11000100 c
b10000100 13
b01000100 14
#176
b10000100 b
b01100011 c
b01000100 13
#177
b01000100 b
b10000100 c
b01101000 13
b11000100 14
#178
b10000100 b
b01000100 c
b10000100 13
b01101000 14
#179
b01000100 b
b10000100 c
b01000100 13
b10000100 14
#180
b01000001 b
b11000100 c
b10000100 13
b01000100 14
#181
b01000100 b
b01010011 c
b11000100 13
b10000100 14
#182
b10000100 c
b01011111 13
b01000100 14
#183
b10000100 b
b00000100 c
b10000100 13
b00000010 14
#184
b11000100 b
b10000100 c
b01000100 13
b10000100 14
#185
b01110011 b
b11000100 c
b10000100 13
b01000100 14
#186
b10000100 b
b01010000 c
b01000100 13
b10000100 14
#187
b01000100 b
b10000100 c
b01010110 13
b00000100 14
#188
b10000100 b
b10000100 13
b01010111 14
#189
b00000100 b
b11000100 c
b01000100 13
b10000100 14
#190
b01011000 b
b00000100 c
b10000100 13
b01000100 14
#191
b10000100 b
b01100101 c
b00000100 13
b10000100 14
#192
b01000100 b
b10000100 c
b01100111 13
b00000100 14
#193
b10000100 b
b01000100 c
b01000100 13
b01100100 14
#194
b00000100 b
b10000100 c
b10000100 14
#195
b01101101 b
b10000100 13
b01000100 14
#196
b10000100 b
b01101010 c
b11000100 13
b10000100 14
#197
b00000100 b
b10000100 c
b01010110 13
#198
b10000100 b
b01000100 c
b10000100 13
b01011111 14
#199
b10000100 c
b01000100 13
b10000100 14
#200
b01011010 b
b11000100 c
b10000100 13
b01000100 14
#201
b10000100 b
b01110010 c
b01000100 13
b10000100 14
#202
b01000100 b
b10000100 c
b01110110 13
b01000100 14
#203
b10000100 b
b01000100 c
b01000100 13
b01100101 14
#204
b00000100 b
b10000100 c
b01000100 14
#205
b01001101 b
b10000100 13
#206
b10000100 b
b01011101 c
b00000100 13
b10000100 14
#207
b01000100 b
b10000100 c
b01010100 13
b01000100 14
#208
b10000100 b
b01000100 c
b10000100 13
b01100110 14
#209
b10000100 c
b01000100 13
b10000100 14
#210
b01000011 b
b11000100 c
b10000100 13
b01000100 14
#211
b10000100 b
b01100011 c
b01000100 13
#212
b01000100 b
b10000100 c
b01100101 13
b11000100 14
#213
b10000100 b
b01000100 c
b10000100 13
b00110010 14
#214
b10000100 c
b01000100 13
b10000100 14
#215
b10111000 b
b00000100 c
b10000100 13
b01000100 14
#216
b10000100 b
b01001001 c
b10000100 14
#217
b01000100 b
b10000100 c
b01101011 13
#218
b10000100 b
b01000100 c
b10000100 13
b01101111 14
#219
b00000100 b
b10000100 c
b01000100 13
b10000100 14
#220
b01110010 b
b11000100 c
b10000100 13
b01000100 14
#221
b10000100 b
b01100001 c
b10000100 14
#222
b01000100 b
b01000100 c
b01011110 13
#223
b10000100 b
b10000100 13
b01011001 14
#224
b00000100 b
b10000100 c
b01000100 13
b10000100 14
#225
b01011010 b
b01000100 c
b10000100 13
b01000100 14
#226
b10000100 b
b01010111 c
b01000100 13
b10000100 14
#227
b01000100 b
b10000100 c
b01100101 13
#228
b10000100 b
b01000100 c
b10000100 13
b01011011 14
#229
b01000100 b
b10000100 c
b01000100 13
b10000100 14
#230
b01100011 b
b00000100 c
b10000100 13
#231
b10000100 b
b01100110 c
b00000100 13
#232
b01000100 b
b01000100 c
b01011001 13
#233
b11000100 b
b10000100 13
b01011110 14
#234
b00000100 b
b10000100 c
b01000100 13
b10000100 14
#235
b00110001 b
b00000100 c
b10000100 13
b01000100 14
#236
b10000100 b
b01110101 c
b10000100 14
#237
b01000100 b
b01000100 c
b01011110 13
#238
b10000100 b
b01000100 13
b01101001 14
#239
b10000100 c
b10000100 14
#240
b01101101 b
b11000100 c
b10000100 13
b01000100 14
#241
b10000100 b
b01111110 c
b01000100 13
b10000100 14
#242
b01000100 b
b10000100 c
b10110011 13
#243
b10000100 b
b01000100 c
b10000100 13
b01001010 14
#244
b01000100 b
b10000100 c
b01000100 13
b10000100 14
#245
b01011011 b
b01000100 c
b10000100 13
#246
b10000100 b
b01110001 c
b01000100 13
b11000100 14
#247
b01000100 b
b10000100 c
b01100000 13
b00000100 14
#248
b10000100 b
b01000100 c
b10000100 13
b01110111 14
#249
b10000100 c
b01000100 13
b10000100 14
#250
b10010000 b
b00000100 c
b10000100 13
#251
b10000100 b
b01000100 c
b00000100 13
#252
b01000100 b
b10000100 c
b01101100 13
b01000100 14
#253
b10000100 b
b01000100 c
b10000100 13
b01010101 14
#254
b01000100 b
b10000100 c
b01000100 13
b10000100 14
#255
b01100011 b
b11000100 13
b01000100 14
#256
b10000100 b
b01100100 c
b00000100 13
b10000100 14
#257
b01000100 b
b10000100 c
b01111010 13
b11000100 14
#258
b10000100 b
b01000100 c
b11000100 13
b10010100 14
#259
b11000100 b
b10000100 c
b01000100 13
b10000100 14
#260
b01000011 b
b11000100 c
b10000100 13
b01000100 14
#261
b10000100 b
b01101111 c
b00000100 13
b10000100 14
#262
b10000100 c
b01010011 13
b00000100 14
#263
b01000100 b
b01000100 c
b10000100 13
b01110100 14
#264
b11000100 b
b11000100 c
b01000100 13
b10000100 14
#265
b01110011 b
b00000100 c
b10000100 13
b01000100 14
#266
b10000100 b
b01111101 c
b11000100 13
b10000100 14
#267
b01000100 b
b01000100 c
b01100010 13
#268
b10000100 b
b10000100 13
b01011101 14
#269
b01000100 b
b10000100 c
b01000100 13
b10000100 14
#270
b10100110 b
b01000100 c
b10000100 13
b01000100 14
#271
b10000100 b
b01001100 c
b01000100 13
b10000100 14
#272
b01000100 b
b10000100 c
b01101111 13
b00000100 14
#273
b10000100 b
b10000100 13
b01111011 14
#274
b00000100 13
b10000100 14
#275
b01011100 b
b01000100 c
b10000100 13
b01000100 14
#276
b10000100 b
b01100111 c
b00000100 13
b10000100 14
#277
b01000100 b
b01000100 c
b01110011 13
#278
b10000100 b
b10000100 13
b01101111 14
#279
b01000100 b
b10000100 c
b10000100 14
#280
b01011101 b
b01000100 c
b01000100 14
#281
b01000100 b
b10111000 c
b10000100 14
#282
b10000100 c
b01001110 13
#283
b10000100 b
b01000100 c
b10000100 13
b01100110 14
#284
b01000100 b
b10000100 c
b01000100 13
b10000100 14
#285
b01101111 b
b10000100 13
b01000100 14
#286
b10000100 b
b01110110 c
b00000100 13
b11000100 14
#287
b01000100 b
b10000100 c
b01101100 13
b00000100 14
#288
b10000100 b
b01000100 c
b01000100 13
b01111001 14
#289
b11000100 b
b10000100 c
b10000100 14
#290
b01011111 b
b11000100 c
b10000100 13
#291
b10000100 b
b01111101 c
b11000100 13
#292
b01000100 b
b10000100 c
b01100000 13
b00000100 14
#293
b10000100 b
b01000100 c
b10000100 13
b10000111 14
#294
b01000100 b
b10000100 c
b01000100 13
b10000100 14
#295
b01011010 b
b10000100 13
b01000100 14
#296
b10000100 b
b01100110 c
b10000100 14
#297
b01000100 b
b10000100 c
b01101001 13
b01000100 14
#298
b10000100 b
b01000100 c
b10000100 13
b01101001 14
#299
b01000100 b
b10000100 c
b01000100 13
b10000100 14
#300
b01010001 b
b00000100 c
b10000100 13
b01000100 14
#301
b10000100 b
b01110010 c
b01000100 13
b11000100 14
#302
b01000100 b
b10000100 c
b01100101 13
b00000100 14
#303
b10000100 b
b01000100 c
b10000100 13
b00011111 14
#304
b11000100 b
b10000100 c
b01000100 13
b10000100 14
#305
b01111000 b
b10000100 13
b01000100 14
#306
b10000100 b
b01010010 c
b01000100 13
b10000100 14
#307
b01000100 b
b10000100 c
b01010111 13
b01000100 14
#308
b10000100 b
b01000100 c
b10000100 13
b01101101 14
#309
b01000100 b
b11000100 c
b01000100 13
b10000100 14
#310
b01101011 b
b00000100 c
b10000100 13
b01000100 14
#311
b10000100 b
b01111101 c
b00000100 13
b10000100 14
#312
b01000100 b
b10000100 c
b01100101 13
b11000100 14
#313
b10000100 b
b01000100 c
b10000100 13
b01111111 14
#314
b01000100 b
b10000100 c
b01000100 13
b10000100 14
#315
b01100110 b
b01000100 c
b11000100 13
b01000100 14
#316
b10000100 b
b01011111 c
b00000100 13
b10000100 14
#317
b01000100 b
b10000100 c
b01110010 13
b01000100 14
#318
b10000100 b
b01000100 c
b10000100 13
b01111001 14
#319
b00000100 b
b01000100 13
b10000100 14
#320
b01101101 b
b11000100 c
b10000100 13
#321
b10000100 b
b01001001 c
b00000100 13
#322
b01000100 b
b10000100 c
b01100100 13
b01000100 14
#323
b10000100 b
b01000100 c
b10000100 13
b01010101 14
#324
b01000100 b
b10000100 c
b01000100 13
b10000100 14
#325
b01111010 b
b00000100 c
b10000100 13
b01000100 14
#326
b10000100 b
b01000000 c
b01000100 13
b10000100 14
#327
b01000100 b
b10000100 c
b01100000 13
b01000100 14
#328
b10000100 b
b01000100 c
b10000100 13
b01011001 14
#329
b01000100 13
b01000100 14
#330
b01000110 b
b11000100 c
#331
b10000100 b
b01101100 c
b11000100 13
b10000100 14
#332
b01000100 b
b10000100 c
b01110110 13
b01000100 14
#333
b10000100 b
b01000100 c
b10000100 13
b01101010 14
#334
b10000100 c
b01000100 13
b10000100 14
#335
b01100100 b
b11000100 13
b01000100 14
#336
b10000100 b
b01100000 c
b00000100 13
b10000100 14
#337
b01000100 b
b01000100 c
b01111110 13
#338
b10000100 b
b10000100 13
b01011101 14
#339
b01000100 b
b10000100 c
b01000100 13
b10000100 14
#340
b01110000 b
b00000100 c
b10000100 13
b01000100 14
#341
b10000100 b
b01011010 c
b01000100 13
b10000100 14
#342
b01000100 b
b10000100 c
b01111001 13
b01000100 14
#343
b10000100 b
b01000100 c
b01000100 13
b01010111 14
#344
b01000100 b
b10000100 14
#345
b01011101 b
b11000100 c
b01000100 14
#346
b01000100 b
b01100001 c
b11000100 13
b10000100 14
#347
b10000100 c
b01101110 13
b00000100 14
#348
b10000100 b
b01000100 c
b10000100 13
b01010001 14
#349
b10000100 c
b01000100 13
b11000100 14
#350
b01111110 b
b01000100 c
b10000100 13
b01000100 14
#351
b10000100 b
b01110011 c
#352
b01000100 b
b10000100 c
b01110101 13
b11000100 14
#353
b10000100 b
b01000100 c
b10000100 13
b01010010 14
#354
b10000100 c
b01000100 14
#355
b01000010 b
#356
b10000100 b
b01101100 c
b11000100 13
b10000100 14
#357
b01000100 b
b10000100 c
b01101010 13
#358
b10000100 b
b01000100 c
b01000100 13
b01100110 14
#359
b00000100 b
b10000100 c
b01000100 14
#360
b01111101 b
b11000100 c
b10000100 13
#361
b10000100 b
b01011001 c
b00000100 13
b10000100 14
#362
b01000100 b
b10000100 c
b01010110 13
b01000100 14
#363
b10000100 b
b01000100 c
b10000100 13
b01100010 14
#364
b11000100 b
b10000100 c
b01000100 13
b10000100 14
#365
b01101001 b
b01000100 c
b10000100 13
b01000100 14
#366
b10000100 b
b01010111 c
b01000100 13
b10000100 14
#367
b01000100 b
b10000100 c
b01011010 13
b00000100 14
#368
b10000100 b
b01000100 c
b11000100 13
b01011011 14
#369
b10000100 c
b01000100 13
b10000100 14
#370
b01000001 b
b10000100 13
b01000100 14
#371
b01000100 b
b01000001 c
b00000100 13
b10000100 14
#372
b10000100 c
b01101110 13
#373
b10000100 b
b01000100 c
b10000100 13
b01010111 14
#374
b01000100 b
b10000100 c
b01000100 13
b10000100 14
#375
b01100010 b
b01000100 c
b10000100 13
b01000100 14
#376
b01000100 b
b01101011 c
b00000100 13
#377
b01000100 c
b01001110 13
b11000100 14
#378
b10000100 13
b01110110 14
#379
b11000100 b
b10000100 c
b01000100 13
b10000100 14
#380
b01010100 b
b11000100 c
b10000100 13
b01000100 14
#381
b10000100 b
b01101001 c
b00000100 13
b10000100 14
#382
b01000100 b
b10000100 c
b01010101 13
b11000100 14
#383
b10000100 b
b01000100 c
b10000100 13
b01100000 14
#384
b01000100 b
b10000100 c
b01000100 13
b10000100 14
#385
b01101010 b
b10000100 13
b01000100 14
#386
b10000100 b
b01100010 c
b01000100 13
b10000100 14
#387
b01000100 b
b10000100 c
b01100111 13
b01000100 14
#388
b10000100 b
b01000100 c
b01000100 13
b01110001 14
#389
b01000100 b
b10000100 14
#390
b01011110 b
b11000100 c
b11000100 13
b01000100 14
#391
b01000100 b
b01100000 c
b00000100 13
b10000100 14
#392
b10000100 c
b01111110 13
b11000100 14
#393
b10000100 b
b01000100 c
b11000100 13
b01101011 14
#394
b10000100 c
b01000100 13
b10000100 14
#395
b01100010 b
b01000100 c
b10000100 13
b01000100 14
#396
b10000100 b
b01100111 c
b00000100 13
b10000100 14
#397
b01000100 b
b10000100 c
b01101110 13
b01000100 14
#398
b01000100 c
b10000100 13
b01101001 14
#399
b11000100 b
b10000100 c
b01000100 13
b10000100 14
#400
b01100101 b
b00000100 c
b10000100 13
b01000100 14
#401
b10000100 b
b01101010 c
b00000100 13
b10000100 14
#402
b01000100 b
b10000100 c
b01010001 13
b00000100 14
#403
b01000100 c
b10000100 13
b01010111 14
#404
b10000100 b
b10000100 c
b01000100 13
b01000100 14
#405
b01110100 b
b01000100 c
b10000100 13
#406
b10000100 b
b01011110 c
b01000100 13
b10000100 14
#407
b01000100 b
b10000100 c
b01011011 13
b01000100 14
#408
b01000100 c
b10000100 13
b01010001 14
#409
b11000100 b
b01000100 13
b01000100 14
#410
b01101000 b
b11000100 c
b11000100 13
#411
b10000100 b
b01111101 c
b00000100 13
b10000100 14
#412
b01000100 b
b10000100 c
b01000101 13
#413
b10000100 b
b01000100 c
b10000100 13
b01100011 14
#414
b00000100 b
b10000100 c
b01000100 13
b10000100 14
#415
b01011000 b
b01000100 c
b10000100 13
b01000100 14
#416
b10000100 b
b01101011 c
b01000100 13
b10000100 14
#417
b01000100 b
b10000100 c
b01010100 13
b01000100 14
#418
b10000100 b
b01000100 c
b10000100 13
b00111001 14
#419
b01000100 b
b01000100 13
b10000100 14
#420
b01110011 b
b11000100 c
b10000100 13
b01000100 14
#421
b10000100 b
b01101010 c
b01000100 13
b10000100 14
#422
b01000100 b
b10000100 c
b01100101 13
b01000100 14
#423
b01000100 c
b10000100 13
b00111011 14
#424
b01000100 13
b10000100 14
#425
b01110100 b
b10000100 13
b01000100 14
#426
b01000100 b
b01000111 c
b10000100 14
#427
b10000100 c
b01011100 13
b01000100 14
#428
b01000100 c
b10000100 13
b01000101 14
#429
b11000100 b
b10000100 c
b01000100 13
b10000100 14
#430
b01100001 b
b00000100 c
b10000100 13
b01000100 14
#431
b01000100 b
b01100101 c
b10000100 14
#432
b01000100 c
b01111101 13
b01000100 14
#433
b10000100 b
b01000100 13
b01101110 14
#434
b00000100 b
b10000100 14
#435
b01001110 b
b10000100 c
b10000100 13
b01000100 14
#436
b10000100 b
b01010111 c
#437
b01000100 b
b10000100 c
b01101101 13
b11000100 14
#438
b10000100 b
b00000100 c
b10000100 13
b01000010 14
#439
b01000100 c
b10000100 14
#440
b01000011 b
b10000100 c
b01000100 14
#441
b10000100 b
b01000100 c
b00000100 13
b10000100 14
#442
b01000100 b
b10000100 c
b01101000 13
b01000100 14
#443
b01000100 c
b10000100 13
b01000101 14
#444
b11000100 b
b01000100 13
b10000100 14
#445
b01010010 b
b11000100 c
b01000100 14
#446
b10000100 b
b01100100 c
b11000100 13
b10000100 14
#447
b01000100 b
b10000100 c
b01011010 13
b11000100 14
#448
b10000100 b
b01000100 c
b10000100 13
b01010001 14
#449
b01000100 b
b10000100 c
b01000100 13
b10000100 14
#450
b01000101 b
b00000100 c
b10000100 13
b01000100 14
#451
b10000100 b
b01000101 c
b10000100 14
#452
b01000100 b
b10000100 c
b01011100 13
b00000100 14
#453
b10000100 b
b01000100 c
b10000100 13
b01010001 14
#454
b01000100 b
b10000100 c
b01000100 13
b10000100 14
#455
b01100100 b
b10000100 13
b01000100 14
#456
b10000100 b
b01010001 c
b00000100 13
b10000100 14
#457
b01000100 b
b10000100 c
b01110100 13
b01000100 14
#458
b10000100 b
b01000100 c
b01000100 13
b01001010 14
#459
b01000100 b
b10000100 c
b10000100 14
#460
b01011101 b
b00000100 c
b10000100 13
b01000100 14
#461
b10000100 b
b01100101 c
b01000100 13
#462
b01000100 b
b10000100 c
b01011000 13
b11000100 14
#463
b10000100 b
b00000100 c
b10000100 13
b01100101 14
#464
b01000100 b
b01000100 c
b01000100 13
b10000100 14
#465
b01001011 b
b10000100 13
b01000100 14
#466
b10000100 b
b00011010 c
b00000100 13
b10000100 14
#467
b01000100 b
b10000100 c
b01110111 13
b11000100 14
#468
b10000100 b
b01000100 c
b10000100 13
b01010111 14
#469
b00000100 b
b10000100 c
b01000100 13
b10000100 14
#470
b01101010 b
b01000100 c
b10000100 13
b01000100 14
#471
b10000100 b
b01010100 c
b01000100 13
b10000100 14
#472
b01000100 b
b10000100 c
b01010001 13
b00000100 14
#473
b01000100 c
b10000100 13
b01010101 14
#474
b11000100 b
b10000100 c
b01000100 13
b10000100 14
#475
b01000110 b
b01000100 c
b10000100 13
b01000100 14
#476
b10000100 b
b01011011 c
b01000100 13
b10000100 14
#477
b01000100 b
b01000100 c
b01100110 13
b11000100 14
#478
b10000100 b
b10000100 13
b01101110 14
#479
b01000100 b
b10000100 c
b01000100 13
b10000100 14
#480
b01110101 b
b11000100 c
b10000100 13
b01000100 14
#481
b10000100 b
b01010001 c
b00000100 13
b10000100 14
#482
b01000100 b
b10000100 c
b00101101 13
b01000100 14
#483
b10000100 b
b01000100 c
b10000100 13
b01111011 14
#484
b10000100 c
b01000100 13
b10000100 14
#485
b01100110 b
b00000100 c
b10000100 13
b01000100 14
#486
b10000100 b
b01010010 c
b01000100 13
b10000100 14
#487
b01000100 b
b01000100 c
b01000011 13
b01000100 14
#488
b10000100 b
b10000100 13
b01101110 14
#489
b00000100 b
b10000100 c
b01000100 13
b01000100 14
#490
b01100101 b
b00000100 c
b10000100 13
#491
b10000100 b
b01101111 c
b00000100 13
b10000100 14
#492
b01000100 b
b10000100 c
b00100100 13
b01000100 14
#493
b11000100 b
b01000100 c
b10000100 13
b01111000 14
#494
b01000100 b
b10000100 c
b01000100 13
b01000100 14
#495
b01100100 b
b00000100 c
b10000100 13
#496
b10000100 b
b01010111 c
b10000100 14
#497
b01000100 b
b10000100 c
b01011001 13
#498
b10000100 b
b01000100 c
b10000100 13
b01100101 14
#499
b01000100 b
b10000100 c
b01000100 13
b01000100 14
#500
b11000100 c
b10000100 13
#501
b10000100 b
b01101101 c
b01000100 13
b10000100 14
#502
b01000100 b
b10000100 c
b01010001 13
b00000100 14
#503
b10000100 b
b01000100 c
b10000100 13
b10011101 14
#504
b00000100 b
b01000100 13
b01000100 14
#505
b01000101 b
b11000100 c
b10000100 13
#506
b01000100 b
b01011110 c
b01000100 13
#507
b10000100 c
b01001110 13
b11000100 14
#508
b10000100 b
b01000100 c
b10000100 13
b01000101 14
#509
b01000100 b
b10000100 c
b01000100 13
b10000100 14
#510
b01100100 b
b01000100 c
b01000100 14
#511
b10000100 b
b01100101 c
b10000100 13
#512
b01000100 b
b10000100 c
b01000000 13
b11000100 14
#513
b10000100 b
b01000100 c
b01000100 13
b01100110 14
#514
b01000100 b
b10000100 c
b10000100 14
#515
b00001001 b
b01000100 14
#516
b01000100 b
b01110101 c
b11000100 13
b11000100 14
#517
b00000100 b
b10000100 c
b01001100 13
b01000100 14
#518
b10000100 b
b01000100 c
b01000100 13
b01010011 14
#519
b10000100 14
#520
b01001110 b
b11000100 c
b10000100 13
b01000100 14
#521
b10000100 b
b01010101 c
b00000100 13
b10000100 14
#522
b01000100 b
b10000100 c
b01010110 13
b00000100 14
#523
b10000100 b
b01000100 c
b10000100 13
b01100000 14
#524
b01000100 b
b01000100 13
b10000100 14
#525
b01010101 b
b11000100 c
b10000100 13
b01000100 14
#526
b01000100 b
b01010011 c
b01000100 13
#527
b10000100 c
b01011101 13
b11000100 14
#528
b01000100 c
b01000100 13
b01001000 14
#529
b10000100 b
b10000100 c
b10000100 14
#530
b01011010 b
b00000100 c
b01000100 14
#531
b01000100 b
b01100000 c
b11000100 13
b10000100 14
#532
b10000100 c
b01101011 13
b00000100 14
#533
b10000100 b
b01000100 c
b10000100 13
b01010100 14
#534
b00000100 b
b01000100 13
b11000100 14
#535
b01000000 b
b11000100 c
b10000100 13
b01000100 14
#536
b10000100 b
b01010001 c
b01000100 13
b10000100 14
#537
b01000100 b
b01000100 c
b01000001 13
b00000100 14
#538
b10000100 b
b10000100 13
b01001101 14
#539
b01000100 b
b10000100 c
b01000100 13
b01000100 14
#540
b01011010 b
b01000100 c
b10000100 13
#541
b10000100 b
b01001101 c
b10000100 14
#542
b01000100 b
b10000100 c
b01000110 13
#543
b01000100 c
b01000100 13
b01010010 14
#544
b11000100 b
b01000100 14
#545
b00101111 b
b11000100 c
#546
b10000100 b
b01101001 c
b11000100 13
b10000100 14
#547
b01000100 b
b10000100 c
b01000000 13
b00000100 14
#548
b10000100 b
b01000100 c
b01000100 13
b01010001 14
#549
b00000100 b
b01000100 14
#550
b00101110 b
b00000100 14
#551
b10000100 b
b01111100 c
b11000100 13
b10000100 14
#552
b01000100 b
b10000100 c
b01101011 13
b00000100 14
#553
b10000100 b
b01000100 c
b10000100 13
b01100001 14
#554
b10000100 c
b01000100 13
b10000100 14
#555
b01000000 b
b01000100 c
b10000100 13
b01000100 14
#556
b10000100 b
b01010001 c
b00000100 13
b10000100 14
#557
b01000100 b
b10000100 c
b01001001 13
b00000100 14
#558
b10000100 b
b00000100 c
b10000100 13
b01100111 14
#559
b01000100 b
b10000100 c
b01000100 13
b01000100 14
#560
b01000011 b
b01000100 c
#561
b10000100 b
b01111100 c
b10000100 13
#562
b01000100 b
b01000100 c
b01000101 13
b11000100 14
#563
b01000100 13
b01101101 14
#564
b10000100 b
b10000100 c
b00000100 13
b10000100 14
#565
b01000111 b
b01000100 c
b01000100 13
b01000100 14
#566
b01000100 b
b01000010 c
b10000100 13
b10000100 14
#567
b01000100 c
b01001111 13
b00000100 14
#568
b10000100 b
b10000100 13
b01011101 14
#569
b00000100 b
b10000100 c
b01000100 13
b01000100 14
#570
b01110010 b
b00000100 c
b10000100 13
#571
b10000100 b
b01011101 c
b01000100 13
b10000100 14
#572
b01000100 b
b10000100 c
b01011000 13
b01000100 14
#573
b10000100 b
b01000100 c
b01000100 13
b01101101 14
#574
b01000100 b
b10000100 c
b01000100 14
#575
b01101101 b
b00000100 c
b10000100 13
#576
b01000100 b
b01011000 c
b00000100 13
#577
b10000100 c
b01011010 13
b11000100 14
#578
b10000100 b
b01000100 c
b10000100 13
b01010001 14
#579
b01000100 b
b10000100 c
b01000100 13
b01000100 14
#580
b01010000 b
#581
b10000100 b
b01011001 c
b10000100 13
b10000100 14
#582
b01000100 b
b10000100 c
b01010010 13
b01000100 14
#583
b10000100 b
b01000100 c
b01000100 13
b01010101 14
#584
b11000100 b
b01000100 14
#585
b01011010 b
b11000100 c
b10000100 13
#586
b10000100 b
b01011101 c
b01000100 13
#587
b01000100 b
b10000100 c
b01011010 13
b11000100 14
#588
b10000100 b
b01000100 c
b10000100 13
b01000000 14
#589
b00000100 b
b10000100 c
b01000100 13
b01000100 14
#590
b00100010 b
b00000100 c
#591
b10000100 b
b01111110 c
#592
b01000100 b
b10000100 c
b01000101 13
b10000100 14
#593
b10000100 b
b01000100 c
b10000100 13
b01010100 14
#594
b00000100 b
b01000100 13
b10000100 14
#595
b01010001 b
b10000100 c
b10000100 13
b01000100 14
#596
b01000100 b
b01100000 c
b01000100 13
#597
b01000100 c
b01000101 13
b11000100 14
#598
b10000100 b
b01000100 13
b01001100 14
#599
b01000100 b
b10000100 c
b10000100 14
#600
b01111010 b
b01000100 14
#601
b10000100 b
b01011010 c
b11000100 13
b10000100 14
#602
b01000100 b
b10000100 c
b01010000 13
b01000100 14
#603
b10000100 b
b01000100 c
b01000100 13
b01100100 14
#604
b10000100 c
b01000100 14
