la3_waveform.vcd
$date today $end
$timescale 1 ns $end
$scope module top $end
$var wire 8 0 mipi_tx_dp10_HS_OUT $end
$var wire 8 1 mipi_tx_dp11_HS_OUT $end
$var wire 8 2 mipi_tx_dp13_HS_OUT $end
$var wire 8 3 mipi_tx_dp12_HS_OUT $end
$var wire 1 4 mipi_tx_dp03_RST $end
$var wire 1 5 mipi_tx_ck0_RST $end
$var wire 1 6 mipi_tx_dp02_RST $end
$var wire 1 7 mipi_tx_ck1_RST $end
$var wire 1 8 mipi_tx_dp00_RST $end
$var wire 1 9 mipi_tx_dp01_RST $end
$upscope $end
$enddefinitions $end
#0
$dumpvars
bx 0
bx 1
bx 2
bx 3
x4
x5
x6
x7
x8
x9
$end
#0 $dumpon
b11111111 0
b00000000 1
b11111111 2
b00000000 3
04
05
06
07
08
09
#1
b00000000 0
b00000000 2
b11111111 3
#2
b11111111 1
b00000000 3
#3
b11111111 0
b00000000 1
b11111111 2
#4
b00000000 0
b00000000 2
b11111111 3
#5
b11111111 1
b00000000 3
#6
b11111111 0
b00000000 1
b11111111 2
#7
b00000000 0
b00000000 2
b11111111 3
#8
b11111111 1
b00000000 3
#9
b11111111 0
b00000000 1
b11111111 2
#10
b00000000 0
b00000000 2
b11111111 3
#11
b11111111 1
b00000000 3
#12
b11111111 0
b00000000 1
b11111111 2
#13
b00000000 0
b00000000 2
b11111111 3
#14
b11111111 1
b00000000 3
#15
b11111111 0
b00000000 1
b11111111 2
#16
b00000000 0
b00000000 2
b11111111 3
#17
b11111111 1
b00000000 3
#18
b11111111 0
b00000000 1
b11111111 2
#19
b00000000 0
b00000000 2
b11111111 3
#20
b11111111 1
b00000000 3
#21
b11111111 0
b00000000 1
b11111111 2
#22
b00000000 0
b00000000 2
b11111111 3
#23
b11111111 1
b00000000 3
#24
b11111111 0
b00000000 1
b11111111 2
#25
b00000000 0
b00000000 2
b11111111 3
#26
b11111111 1
b00000000 3
#27
b11111111 0
b00000000 1
b11111111 2
#28
b00000000 0
b00000000 2
b11111111 3
#29
b11111111 1
b00000000 3
#30
b11111111 0
b00000000 1
b11111111 2
#31
b00000000 0
b00000000 2
b11111111 3
#32
b11111111 1
b00000000 3
#33
b11111111 0
b00000000 1
b11111111 2
#34
b00000000 0
b00000000 2
b11111111 3
#35
b11111111 1
b00000000 3
#36
b11111111 0
b00000000 1
b11111111 2
#37
b00000000 0
b00000000 2
b11111111 3
#38
b11111111 1
b00000000 3
#39
b11111111 0
b00000000 1
b11111111 2
#40
b00000000 0
b00000000 2
b11111111 3
#41
b11111111 1
b00000000 3
#42
b11111111 0
b00000000 1
b11111111 2
#43
b00000000 0
b00000000 2
b11111111 3
#44
b11111111 1
b00000000 3
#45
b11111111 0
b00000000 1
b11111111 2
#46
b00000000 0
b00000000 2
b11111111 3
#47
b11111111 1
b00000000 3
#48
b11111111 0
b00000000 1
b11111111 2
#49
b00000000 0
b00000000 2
b11111111 3
#50
b11111111 1
b00000000 3
#51
b11111111 0
b00000000 1
b11111111 2
#52
b00000000 0
b00000000 2
b11111111 3
#53
b11111111 1
b00000000 3
#54
b11111111 0
b00000000 1
b11111111 2
#55
b00000000 0
b00000000 2
b11111111 3
#56
b11111111 1
b00000000 3
#57
b11111111 0
b00000000 1
b11111111 2
#58
b00000000 0
b00000000 2
b11111111 3
#59
b11111111 1
b00000000 3
#60
b11111111 0
b00000000 1
b11111111 2
#61
b00000000 0
b00000000 2
b11111111 3
#62
b11111111 1
b00000000 3
#63
b11111111 0
b00000000 1
b11111111 2
#64
b00000000 0
b00000000 2
b11111111 3
#65
b11111111 1
b00000000 3
#66
b11111111 0
b00000000 1
b11111111 2
#67
b00000000 0
b00000000 2
b11111111 3
#68
b11111111 1
b00000000 3
#69
b11111111 0
b00000000 1
b11111111 2
#70
b00000000 0
b00000000 2
b11111111 3
#71
b11111111 1
b00000000 3
#72
b11111111 0
b00000000 1
b11111111 2
#73
b00000000 0
b00000000 2
b11111111 3
#74
b11111111 1
b00000000 3
#75
b11111111 0
b00000000 1
b11111111 2
#76
b00000000 0
b00000000 2
b11111111 3
#77
b11111111 1
b00000000 3
#78
b11111111 0
b00000000 1
b11111111 2
#79
b00000000 0
b00000000 2
b11111111 3
#80
b11111111 1
b00000000 3
#81
b11111111 0
b00000000 1
b11111111 2
#82
b00000000 0
b00000000 2
b11111111 3
#83
b11111111 1
b00000000 3
#84
b11111111 0
b00000000 1
b11111111 2
#85
b00000000 0
b00000000 2
b11111111 3
#86
b11111111 1
b00000000 3
#87
b11111111 0
b00000000 1
b11111111 2
#88
b00000000 0
b00000000 2
b11111111 3
#89
b11111111 1
b00000000 3
#90
b11111111 0
b00000000 1
b11111111 2
#91
b00000000 0
b00000000 2
b11111111 3
#92
b11111111 1
b00000000 3
#93
b11111111 0
b00000000 1
b11111111 2
#94
b00000000 0
b00000000 2
b11111111 3
#95
b11111111 1
b00000000 3
#96
b11111111 0
b00000000 1
b11111111 2
#97
b00000000 0
b00000000 2
b11111111 3
#98
b11111111 1
b00000000 3
#99
b11111111 0
b00000000 1
b11111111 2
#100
b00000000 0
b00000000 2
b11111111 3
#101
b11111111 1
b00000000 3
#102
b11111111 0
b00000000 1
b11111111 2
#103
b00000000 0
b00000000 2
b11111111 3
#104
b11111111 1
b00000000 3
#105
b11111111 0
b00000000 1
b11111111 2
#106
b00000000 0
b00000000 2
b11111111 3
#107
b11111111 1
b00000000 3
#108
b11111111 0
b00000000 1
b11111111 2
#109
b00000000 0
b00000000 2
b11111111 3
#110
b11111111 1
b00000000 3
#111
b11111111 0
b00000000 1
b11111111 2
#112
b00000000 0
b00000000 2
b11111111 3
#113
b11111111 1
b00000000 3
#114
b11111111 0
b00000000 1
b11111111 2
#115
b00000000 0
b00000000 2
b11111111 3
#116
b11111111 1
b00000000 3
#117
b11111111 0
b00000000 1
b11111111 2
#118
b00000000 0
b00000000 2
b11111111 3
#119
b11111111 1
b00000000 3
#120
b11111111 0
b00000000 1
b11111111 2
#121
b00000000 0
b00000000 2
b11111111 3
#122
b11111111 1
b00000000 3
#123
b11111111 0
b00000000 1
b11111111 2
#124
b00000000 0
b00000000 2
b11111111 3
#125
b11111111 1
b00000000 3
#126
b11111111 0
b00000000 1
b11111111 2
#127
b00000000 0
b00000000 2
b11111111 3
#128
b11111111 1
b00000000 3
#129
b11111111 0
b00000000 1
b11111111 2
#130
b00000000 0
b00000000 2
b11111111 3
#131
b11111111 1
b00000000 3
#132
b11111111 0
b00000000 1
b11111111 2
#133
b00000000 0
b00000000 2
b11111111 3
#134
b11111111 1
b00000000 3
#135
b11111111 0
b00000000 1
b11111111 2
#136
b00000000 0
b00000000 2
b11111111 3
#137
b11111111 1
b00000000 3
#138
b11111111 0
b00000000 1
b11111111 2
#139
b00000000 0
b00000000 2
b11111111 3
#140
b11111111 1
b00000000 3
#141
b11111111 0
b00000000 1
b11111111 2
#142
b00000000 0
b00000000 2
b11111111 3
#143
b11111111 1
b00000000 3
#144
b11111111 0
b00000000 1
b11111111 2
#145
b00000000 0
b00000000 2
b11111111 3
#146
b11111111 1
b00000000 3
#147
b11111111 0
b00000000 1
b11111111 2
#148
b00000000 0
b00000000 2
b11111111 3
#149
b11111111 1
b00000000 3
#150
b11111111 0
b00000000 1
b11111111 2
#151
b00000000 0
b00000000 2
b11111111 3
#152
b11111111 1
b00000000 3
#153
b11111111 0
b00000000 1
b11111111 2
#154
b00000000 0
b00000000 2
b11111111 3
#155
b11111111 1
b00000000 3
#156
b11111111 0
b00000000 1
b11111111 2
#157
b00000000 0
b00000000 2
b11111111 3
#158
b11111111 1
b00000000 3
#159
b11111111 0
b00000000 1
b11111111 2
#160
b00000000 0
b00000000 2
b11111111 3
#161
b11111111 1
b00000000 3
#162
b11111111 0
b00000000 1
b11111111 2
#163
b00000000 0
b00000000 2
b11111111 3
#164
b11111111 1
b00000000 3
#165
b11111111 0
b00000000 1
b11111111 2
#166
b00000000 0
b00000000 2
b11111111 3
#167
b11111111 1
b00000000 3
#168
b11111111 0
b00000000 1
b11111111 2
#169
b00000000 0
b00000000 2
b11111111 3
#170
b11111111 1
b00000000 3
#171
b11111111 0
b00000000 1
b11111111 2
#172
b00000000 0
b00000000 2
b11111111 3
#173
b11111111 1
b00000000 3
#174
b11111111 0
b00000000 1
b11111111 2
#175
b00000000 0
b00000000 2
b11111111 3
#176
b11111111 1
b00000000 3
#177
b11111111 0
b00000000 1
b11111111 2
#178
b00000000 0
b00000000 2
b11111111 3
#179
b11111111 1
b00000000 3
#180
b11111111 0
b00000000 1
b11111111 2
#181
b00000000 0
b00000000 2
b11111111 3
#182
b11111111 1
b00000000 3
#183
b11111111 0
b00000000 1
b11111111 2
#184
b00000000 0
b00000000 2
b11111111 3
#185
b11111111 1
b00000000 3
#186
b11111111 0
b00000000 1
b11111111 2
#187
b00000000 0
b00000000 2
b11111111 3
#188
b11111111 1
b00000000 3
#189
b11111111 0
b00000000 1
b11111111 2
#190
b00000000 0
b00000000 2
b11111111 3
#191
b11111111 1
b00000000 3
#192
b11111111 0
b00000000 1
b11111111 2
#193
b00000000 0
b00000000 2
b11111111 3
#194
b11111111 1
b00000000 3
#195
b11111111 0
b00000000 1
b10000101 2
b01110011 3
#196
b00001001 0
b10100100 1
b00011011 2
b00000100 3
#197
b00000000 0
b00000000 1
b00000000 2
b00000000 3
#494
b11110111 0
b00011010 1
b01101000 2
b00011001 3
#495
b00000001 0
b00001101 1
b00000000 2
b00000000 3
#496
b00000000 0
b00000000 1
#585
b01111010 2
b01111010 3
#586
b00100001 0
b00010010 2
b00000000 3
#587
b00011001 0
b00010100 1
b00101110 2
b00000001 3
#588
b00000000 0
b00000000 1
b00000000 2
b00000000 3
#657
b11010100 0
b11100111 1
b10000000 2
b00111110 3
#658
b00010110 0
b00111011 1
b11111111 2
b00000000 3
#659
b00000000 0
b00000000 1
b00000000 2
b11111111 3
#660
b11111111 1
b00000000 3
#661
b11111111 0
b00000000 1
b11111111 2
#662
b00000000 0
b00000000 2
b11111111 3
#663
b11111111 1
b00000000 3
#664
b11111111 0
b00000000 1
b11111111 2
#665
b00000000 0
b00000000 2
b11111111 3
#666
b11111111 1
b00000000 3
#667
b11111111 0
b00000000 1
b11111111 2
#668
b00000000 0
b00000000 2
b11111111 3
#669
b11111111 1
b00000000 3
#670
b11111111 0
b00000000 1
b11111111 2
#671
b00000000 0
b00000000 2
b11111111 3
#672
b11111111 1
b00000000 3
#673
b11111111 0
b00000000 1
b11111111 2
#674
b00000000 0
b00000000 2
b11111111 3
#675
b11111111 1
b00000000 3
#676
b11111111 0
b00000000 1
b11111111 2
#677
b00000000 0
b00000000 2
b11111111 3
#678
b11111111 1
b00000000 3
#679
b11111111 0
b00000000 1
b11111111 2
#680
b00000000 0
b00000000 2
b11111111 3
#681
b11111111 1
b00000000 3
#682
b11111111 0
b00000000 1
b11111111 2
#683
b00000000 0
b00000000 2
b11111111 3
#684
b11111111 1
b00000000 3
#685
b11111111 0
b00000000 1
b11111111 2
#686
b00000000 0
b00000000 2
b11111111 3
#687
b11111111 1
b00000000 3
#688
b11111111 0
b00000000 1
b11111111 2
#689
b00000000 0
b00000000 2
b11111111 3
#690
b11111111 1
b00000000 3
#691
b11111111 0
b00000000 1
b11111111 2
#692
b00000000 0
b00000000 2
b11111111 3
#693
b11111111 1
b00000000 3
#694
b11111111 0
b00000000 1
b11111111 2
#695
b00000000 0
b00000000 2
b11111111 3
#696
b11111111 1
b00000000 3
#697
b11111111 0
b00000000 1
b11111111 2
#698
b00000000 0
b00000000 2
b11111111 3
#699
b11111111 1
b00000000 3
#700
b11111111 0
b00000000 1
b11111111 2
#701
b00000000 0
b00000000 2
b11111111 3
#702
b11111111 1
b00000000 3
#703
b11111111 0
b00000000 1
b11111111 2
#704
b00000000 0
b00000000 2
b11111111 3
#705
b11111111 1
b00000000 3
#706
b11111111 0
b00000000 1
b11111111 2
#707
b00000000 0
b00000000 2
b11111111 3
#708
b11111111 1
b00000000 3
#709
b11111111 0
b00000000 1
b11111111 2
#710
b00000000 0
b00000000 2
b11111111 3
#711
b11111111 1
b00000000 3
#712
b11111111 0
b00000000 1
b11111111 2
#713
b00000000 0
b00000000 2
b11111111 3
#714
b11111111 1
b00000000 3
#715
b11111111 0
b00000000 1
b11111111 2
#716
b00000000 0
b00000000 2
b11111111 3
#717
b11111111 1
b00000000 3
#718
b11111111 0
b00000000 1
b11111111 2
#719
b00000000 0
b00000000 2
b11111111 3
#720
b11111111 1
b00000000 3
#721
b11111111 0
b00000000 1
b11111111 2
#722
b00000000 0
b00000000 2
b11111111 3
#723
b11111111 1
b00000000 3
#724
b11111111 0
b00000000 1
b11111111 2
#725
b00000000 0
b00000000 2
b11111111 3
#726
b11111111 1
b00000000 3
#727
b11111111 0
b00000000 1
b11111111 2
#728
b00000000 0
b00000000 2
b11111111 3
#729
b11111111 1
b00000000 3
#730
b11111111 0
b00000000 1
b11111111 2
#731
b00000000 0
b00000000 2
b11111111 3
#732
b11111111 1
b00000000 3
#733
b11111111 0
b00000000 1
b11111111 2
#734
b00000000 0
b00000000 2
b11111111 3
#735
b11111111 1
b00000000 3
#736
b11111111 0
b00000000 1
b11111111 2
#737
b00000000 0
b00000000 2
b11111111 3
#738
b11111111 1
b00000000 3
#739
b11111111 0
b00000000 1
b11111111 2
#740
b00000000 0
b00000000 2
b11111111 3
#741
b11111111 1
b00000000 3
#742
b11111111 0
b00000000 1
b11111111 2
#743
b00000000 0
b00000000 2
b11111111 3
#744
b11111111 1
b00000000 3
#745
b11111111 0
b00000000 1
b11111111 2
#746
b00000000 0
b00000000 2
b11111111 3
#747
b11111111 1
b00000000 3
#748
b11111111 0
b00000000 1
b11111111 2
#749
b00000000 0
b00000000 2
b11111111 3
#750
b11111111 1
b00000000 3
#751
b11111111 0
b00000000 1
b11111111 2
#752
b00000000 0
b00000000 2
b11111111 3
#753
b11111111 1
b00000000 3
#754
b11111111 0
b00000000 1
b11111111 2
#755
b00000000 0
b00000000 2
b11111111 3
#756
b11111111 1
b00000000 3
#757
b11111111 0
b00000000 1
b11111111 2
#758
b00000000 0
b00000000 2
b11111111 3
#759
b11111111 1
b00000000 3
#760
b11111111 0
b00000000 1
b11111111 2
#761
b00000000 0
b00000000 2
b11111111 3
#762
b11111111 1
b00000000 3
#763
b11111111 0
b00000000 1
b11111111 2
#764
b00000000 0
b00000000 2
b11111111 3
#765
b11111111 1
b00000000 3
#766
b11111111 0
b00000000 1
b11111111 2
#767
b00000000 0
b00000000 2
b11111111 3
#768
b11111111 1
b00000000 3
#769
b11111111 0
b00000000 1
b11111111 2
#770
b00000000 0
b00000000 2
b11111111 3
#771
b11111111 1
b00000000 3
#772
b11111111 0
b00000000 1
b11111111 2
#773
b00000000 0
b00000000 2
b11111111 3
#774
b11111111 1
b00000000 3
#775
b11111111 0
b00000000 1
b11111111 2
#776
b00000000 0
b00000000 2
b11111111 3
#777
b11111111 1
b00000000 3
#778
b11111111 0
b00000000 1
b11111111 2
#779
b00000000 0
b00000000 2
b11111111 3
#780
b11111111 1
b00000000 3
#781
b11111111 0
b00000000 1
b11111111 2
#782
b00000000 0
b00000000 2
b11111111 3
#783
b11111111 1
b00000000 3
#784
b11111111 0
b00000000 1
b11111111 2
#785
b00000000 0
b00000000 2
b11111111 3
#786
b11111111 1
b00000000 3
#787
b11111111 0
b00000000 1
b11111111 2
#788
b00000000 0
b00000000 2
b11111111 3
#789
b11111111 1
b00000000 3
#790
b11111111 0
b00000000 1
b11111111 2
#791
b00000000 0
b00000000 2
b11111111 3
#792
b11111111 1
b00000000 3
#793
b11111111 0
b00000000 1
b11111111 2
#794
b00000000 0
b00000000 2
b11111111 3
#795
b11111111 1
b00000000 3
#796
b11111111 0
b00000000 1
b11111111 2
#797
b00000000 0
b00000000 2
b11111111 3
#798
b11111111 1
b00000000 3
#799
b11111111 0
b00000000 1
b11111111 2
#800
b00000000 0
b00000000 2
b11111111 3
#801
b11111111 1
b00000000 3
#802
b11111111 0
b00000000 1
b11111111 2
#803
b00000000 0
b00000000 2
b11111111 3
#804
b11111111 1
b00000000 3
#805
b11111111 0
b00000000 1
b11111111 2
#806
b00000000 0
b00000000 2
b11111111 3
#807
b11111111 1
b00000000 3
#808
b11111111 0
b00000000 1
b11111111 2
#809
b00000000 0
b00000000 2
b11111111 3
#810
b11111111 1
b00000000 3
#811
b11111111 0
b00000000 1
b11111111 2
#812
b00000000 0
b00000000 2
b11111111 3
#813
b11111111 1
b00000000 3
#814
b11111111 0
b00000000 1
b11111111 2
#815
b00000000 0
b00000000 2
b11111111 3
#816
b11111111 1
b00000000 3
#817
b11111111 0
b00000000 1
b11111111 2
#818
b00000000 0
b00000000 2
b11111111 3
#819
b11111111 1
b00000000 3
#820
b11111111 0
b00000000 1
b11111111 2
#821
b00000000 0
b00000000 2
b11111111 3
#822
b11111111 1
b00000000 3
#823
b11111111 0
b00000000 1
b11111111 2
#824
b00000000 0
b00000000 2
b11111111 3
#825
b11111111 1
b00000000 3
#826
b11111111 0
b00000000 1
b11111111 2
#827
b00000000 0
b00000000 2
b11111111 3
#828
b11111111 1
b00000000 3
#829
b11111111 0
b00000000 1
b11111111 2
#830
b00000000 0
b00000000 2
b11111111 3
#831
b11111111 1
b00000000 3
#832
b11111111 0
b00000000 1
b11111111 2
#833
b00000000 0
b00000000 2
b11111111 3
#834
b11111111 1
b00000000 3
#835
b11111111 0
b00000000 1
b11111111 2
#836
b00000000 0
b00000000 2
b11111111 3
#837
b11111111 1
b00000000 3
#838
b11111111 0
b00000000 1
b11111111 2
#839
b00000000 0
b00000000 2
b11111111 3
#840
b11111111 1
b00000000 3
#841
b11111111 0
b00000000 1
b11111111 2
#842
b00000000 0
b00000000 2
b11111111 3
#843
b11111111 1
b00000000 3
#844
b11111111 0
b00000000 1
b11111111 2
#845
b00000000 0
b00000000 2
b11111111 3
#846
b11111111 1
b00000000 3
#847
b11111111 0
b00000000 1
b11111111 2
#848
b00000000 0
b00000000 2
b11111111 3
#849
b11111111 1
b00000000 3
#850
b11111111 0
b00000000 1
b11111111 2
#851
b00000000 0
b00000000 2
b11111111 3
#852
b11111111 1
b00000000 3
#853
b11111111 0
b00000000 1
b11111111 2
#854
b00000000 0
b00000000 2
b11111111 3
#855
b11111111 1
b00000000 3
#856
b11111111 0
b00000000 1
b11111111 2
#857
b00000000 0
b00000000 2
b11111111 3
#858
b11111111 1
b00000000 3
#859
b11111111 0
b00000000 1
b11111111 2
#860
b00000000 0
b00000000 2
b11111111 3
#861
b11111111 1
b00000000 3
#862
b11111111 0
b00000000 1
b11111111 2
#863
b00000000 0
b00000000 2
b11111111 3
#864
b11111111 1
b00000000 3
#865
b11111111 0
b00000000 1
b11111111 2
#866
b00000000 0
b00000000 2
b11111111 3
#867
b11111111 1
b00000000 3
#868
b11111111 0
b00000000 1
b11111111 2
#869
b00000000 0
b00000000 2
b11111111 3
#870
b11111111 1
b00000000 3
#871
b11111111 0
b00000000 1
b11111111 2
#872
b00000000 0
b00000000 2
b11111111 3
#873
b11111111 1
b00000000 3
#874
b11111111 0
b00000000 1
b11111111 2
#875
b00000000 0
b00000000 2
b11111111 3
#876
b11111111 1
b00000000 3
#877
b11111111 0
b00000000 1
b11111111 2
#878
b00000000 0
b00000000 2
b11111111 3
#879
b11111111 1
b00000000 3
#880
b11111111 0
b00000000 1
b11111111 2
#881
b00000000 0
b00000000 2
b11111111 3
#882
b11111111 1
b00000000 3
#883
b11111111 0
b00000000 1
b11111111 2
#884
b00000000 0
b00000000 2
b11111111 3
#885
b11111111 1
b00000000 3
#886
b11111111 0
b00000000 1
b11111111 2
#887
b00000000 0
b00000000 2
b11111111 3
#888
b11111111 1
b00000000 3
#889
b11111111 0
b00000000 1
b11111111 2
#890
b00000000 0
b00000000 2
b11111111 3
#891
b11111111 1
b00000000 3
#892
b11111111 0
b00000000 1
b11111111 2
#893
b00000000 0
b00000000 2
b11111111 3
#894
b11111111 1
b00000000 3
#895
b11111111 0
b00000000 1
b11111111 2
#896
b00000000 0
b00000000 2
b11111111 3
#897
b11111111 1
b00000000 3
#898
b11111111 0
b00000000 1
b11111111 2
#899
b00000000 0
b00000000 2
b11111111 3
#900
b11111111 1
b00000000 3
#901
b11111111 0
b00000000 1
b11111111 2
#902
b00000000 0
b00000000 2
b11111111 3
#903
b11111111 1
b00000000 3
#904
b11111111 0
b00000000 1
b11111111 2
#905
b00000000 0
b00000000 2
b11111111 3
#906
b11111111 1
b00000000 3
#907
b11111111 0
b00000000 1
b11111111 2
#908
b00000000 0
b00000000 2
b11111111 3
#909
b11111111 1
b00000000 3
#910
b11111111 0
b00000000 1
b11111111 2
#911
b00000000 0
b00000000 2
b11111111 3
#912
b11111111 1
b00000000 3
#913
b11111111 0
b00000000 1
b11111111 2
#914
b00000000 0
b00000000 2
b11111111 3
#915
b11111111 1
b00000000 3
#916
b11111111 0
b00000000 1
b11111111 2
#917
b00000000 0
b00000000 2
b11111111 3
#918
b11111111 1
b00000000 3
#919
b11111111 0
b00000000 1
b11111111 2
#920
b00000000 0
b00000000 2
b11111111 3
#921
b11111111 1
b00000000 3
#922
b11111111 0
b00000000 1
b11111111 2
#923
b00000000 0
b00000000 2
b11111111 3
#924
b11111111 1
b00000000 3
#925
b11111111 0
b00000000 1
b11111111 2
#926
b00000000 0
b00000000 2
b11111111 3
#927
b11111111 1
b00000000 3
#928
b11111111 0
b00000000 1
b11111111 2
#929
b00000000 0
b00000000 2
b11111111 3
#930
b11111111 1
b00000000 3
#931
b11111111 0
b00000000 1
b11111111 2
#932
b00000000 0
b00000000 2
b11111111 3
#933
b11111111 1
b00000000 3
#934
b11111111 0
b00000000 1
b11111111 2
#935
b00000000 0
b00000000 2
b11111111 3
#936
b11111111 1
b00000000 3
#937
b11111111 0
b00000000 1
b11111111 2
#938
b00000000 0
b00000000 2
b11111111 3
#939
b11111111 1
b00000000 3
#940
b11111111 0
b00000000 1
b11111111 2
#941
b00000000 0
b00000000 2
b11111111 3
#942
b11111111 1
b00000000 3
#943
b11111111 0
b00000000 1
b11111111 2
#944
b00000000 0
b00000000 2
b11111111 3
#945
b11111111 1
b00000000 3
#946
b11111111 0
b00000000 1
b11111111 2
#947
b00000000 0
b00000000 2
b11111111 3
#948
b11111111 1
b00000000 3
#949
b11111111 0
b00000000 1
b11111111 2
#950
b00000000 0
b00000000 2
b11111111 3
#951
b11111111 1
b00000000 3
#952
b11111111 0
b00000000 1
b11111111 2
#953
b00000000 0
b00000000 2
b11111111 3
#954
b11111111 1
b00000000 3
#955
b11111111 0
b00000000 1
b11111111 2
#956
b00000000 0
b00000000 2
b11111111 3
#957
b11111111 1
b00000000 3
#958
b11111111 0
b00000000 1
b11111111 2
#959
b00000000 0
b00000000 2
b11111111 3
#960
b11111111 1
b00000000 3
#961
b11111111 0
b00000000 1
b11111111 2
#962
b00000000 0
b00000000 2
b11111111 3
#963
b11111111 1
b00000000 3
#964
b11111111 0
b00000000 1
b11111111 2
#965
b00000000 0
b00000000 2
b11111111 3
#966
b11111111 1
b00000000 3
#967
b11111111 0
b00000000 1
b11111111 2
#968
b00000000 0
b00000000 2
b11111111 3
#969
b11111111 1
b00000000 3
#970
b11111111 0
b00000000 1
b11111111 2
#971
b00000000 0
b00000000 2
b11111111 3
#972
b11111111 1
b00000000 3
#973
b11111111 0
b00000000 1
b11111111 2
#974
b00000000 0
b00000000 2
b11111111 3
#975
b11111111 1
b00000000 3
#976
b11111111 0
b00000000 1
b11111111 2
#977
b00000000 0
b00000000 2
b11111111 3
#978
b11111111 1
b00000000 3
#979
b11111111 0
b00000000 1
b11111111 2
#980
b00000000 0
b00000000 2
b11111111 3
#981
b11111111 1
b00000000 3
#982
b11111111 0
b00000000 1
b11111111 2
#983
b00000000 0
b00000000 2
b11111111 3
#984
b11111111 1
b00000000 3
#985
b11111111 0
b00000000 1
b11111111 2
#986
b00000000 0
b00000000 2
b11111111 3
#987
b11111111 1
b00000000 3
#988
b11111111 0
b00000000 1
b11111111 2
#989
b00000000 0
b00000000 2
b11111111 3
#990
b11111111 1
b00000000 3
#991
b11111111 0
b00000000 1
b11111111 2
#992
b00000000 0
b00000000 2
b11111111 3
#993
b11111111 1
b00000000 3
#994
b11111111 0
b00000000 1
b11111111 2
#995
b00000000 0
b00000000 2
b11111111 3
#996
b11111111 1
b00000000 3
#997
b11111111 0
b00000000 1
b11111111 2
#998
b00000000 0
b00000000 2
b11111111 3
#999
b11111111 1
b00000000 3
#1000
b11111111 0
b00000000 1
b11111111 2
#1001
b00000000 0
b00000000 2
b11111111 3
#1002
b11111111 1
b00000000 3
#1003
b11111111 0
b00000000 1
b11111111 2
#1004
b00000000 0
b00000000 2
b11111111 3
#1005
b11111111 1
b00000000 3
#1006
b11111111 0
b00000000 1
b11111111 2
#1007
b00000000 0
b00000000 2
b11111111 3
#1008
b11111111 1
b00000000 3
#1009
b11111111 0
b00000000 1
b11111111 2
#1010
b00000000 0
b00000000 2
b11111111 3
#1011
b11111111 1
b00000000 3
#1012
b11111111 0
b00000000 1
b11111111 2
#1013
b00000000 0
b00000000 2
b11111111 3
#1014
b11111111 1
b00000000 3
#1015
b11111111 0
b00000000 1
b11111111 2
#1016
b00000000 0
b00000000 2
b11111111 3
#1017
b11111111 1
b00000000 3
#1018
b11111111 0
b00000000 1
b11111111 2
#1019
b00000000 0
b00000000 2
b11111111 3
#1020
b11111111 1
b00000000 3
#1021
b11111111 0
b00000000 1
b11111111 2
#1022
b00000000 0
b00000000 2
b11111111 3
#1023
b11111111 1
b00000000 3
#1024
b11111111 0
b00000000 1
b11111111 2
#1025
b00000000 0
b00000000 2
b11111111 3
#1026
b11111111 1
b00000000 3
#1027
b11111111 0
b00000000 1
b11111111 2
#1028
b00000000 0
b00000000 2
b11111111 3
#1029
b11111111 1
b00000000 3
#1030
b11111111 0
b00000000 1
b11111111 2
#1031
b00000000 0
b00000000 2
b11111111 3
#1032
b11111111 1
b00000000 3
#1033
b11111111 0
b00000000 1
b11111111 2
#1034
b00000000 0
b00000000 2
b11111111 3
#1035
b11111111 1
b00000000 3
#1036
b11111111 0
b00000000 1
b11111111 2
#1037
b00000000 0
b00000000 2
b11111111 3
#1038
b11111111 1
b00000000 3
#1039
b11111111 0
b00000000 1
b11111111 2
#1040
b00000000 0
b00000000 2
b11111111 3
#1041
b11111111 1
b00000000 3
#1042
b11111111 0
b00000000 1
b11111111 2
#1043
b00000000 0
b00000000 2
b11111111 3
#1044
b11111111 1
b00000000 3
#1045
b11111111 0
b00000000 1
b11111111 2
#1046
b00000000 0
b00000000 2
b11111111 3
#1047
b11111111 1
b00000000 3
#1048
b11111111 0
b00000000 1
b11111111 2
#1049
b00000000 0
b00000000 2
b11111111 3
#1050
b11111111 1
b00000000 3
#1051
b11111111 0
b00000000 1
b11111111 2
#1052
b00000000 0
b00000000 2
b11111111 3
#1053
b11111111 1
b00000000 3
#1054
b11111111 0
b00000000 1
b11111111 2
#1055
b00000000 0
b00000000 2
b11111111 3
#1056
b11111111 1
b00000000 3
#1057
b11111111 0
b00000000 1
b11111111 2
#1058
b00000000 0
b00000000 2
b11111111 3
#1059
b11111111 1
b00000000 3
#1060
b11111111 0
b00000000 1
b11111111 2
#1061
b00000000 0
b00000000 2
b11111111 3
#1062
b11111111 1
b00000000 3
#1063
b11111111 0
b00000000 1
b11111111 2
#1064
b00000000 0
b00000000 2
b11111111 3
#1065
b11111111 1
b00000000 3
#1066
b11111111 0
b00000000 1
b11111111 2
#1067
b00000000 0
b00000000 2
b11111111 3
#1068
b11111111 1
b00000000 3
#1069
b11111111 0
b00000000 1
b11111111 2
#1070
b00000000 0
b00000000 2
b11111111 3
#1071
b11111111 1
b00000000 3
#1072
b11111111 0
b00000000 1
b11111111 2
#1073
b00000000 0
b00000000 2
b11111111 3
#1074
b11111111 1
b00000000 3
#1075
b11111111 0
b00000000 1
b11111111 2
#1076
b00000000 0
b00000000 2
b11111111 3
#1077
b11111111 1
b00000000 3
#1078
b11111111 0
b00000000 1
b11111111 2
#1079
b00000000 0
b00000000 2
b11111111 3
#1080
b11111111 1
b00000000 3
#1081
b11111111 0
b00000000 1
b11111111 2
#1082
b00000000 0
b00000000 2
b11111111 3
#1083
b11111111 1
b00000000 3
#1084
b11111111 0
b00000000 1
b11111111 2
#1085
b00000000 0
b00000000 2
b11111111 3
#1086
b11111111 1
b00000000 3
#1087
b11111111 0
b00000000 1
b11111111 2
#1088
b00000000 0
b00000000 2
b11111111 3
#1089
b11111111 1
b00000000 3
#1090
b11111111 0
b00000000 1
b11111111 2
#1091
b00000000 0
b00000000 2
b11111111 3
#1092
b11111111 1
b00000000 3
#1093
b11111111 0
b00000000 1
b11111111 2
#1094
b00000000 0
b00000000 2
b11111111 3
#1095
b11111111 1
b00000000 3
#1096
b11111111 0
b00000000 1
b11111111 2
#1097
b00000000 0
b00000000 2
b11111111 3
#1098
b11111111 1
b00000000 3
#1099
b11111111 0
b00000000 1
b11111111 2
#1100
b00000000 0
b00000000 2
b11111111 3
#1101
b11111111 1
b00000000 3
#1102
b11111111 0
b00000000 1
b11111111 2
#1103
b00000000 0
b00000000 2
b11111111 3
#1104
b11111111 1
b00000000 3
#1105
b11111111 0
b00000000 1
b11111111 2
#1106
b00000000 0
b00000000 2
b11111111 3
#1107
b11111111 1
b00000000 3
#1108
b11111111 0
b00000000 1
b11111111 2
#1109
b00000000 0
b00000000 2
b11111111 3
#1110
b11111111 1
b00000000 3
#1111
b11111111 0
b00000000 1
b11111111 2
#1112
b00000000 0
b00000000 2
b11111111 3
#1113
b11111111 1
b00000000 3
#1114
b11111111 0
b00000000 1
b11111111 2
#1115
b00000000 0
b00000000 2
b11111111 3
